Vehicle_59 (48.603350383061744822,-70.871125811377254422) (45.518115092356886464,-71.687097303872434395) 109000 142 1800
Vehicle_9 (45.605514809563139522,-71.677782239625756233) (48.313520369972920321,-71.232792784031275346) 109000 142 1800
Vehicle_159 (48.63172175298505806,-67.211328560180589875) (45.538320466178802803,-73.57639671260901082) 109000 142 1800
Vehicle_109 (45.506961918323987959,-73.640203515960237723) (48.578855612553908827,-67.25206657150387457) 109000 142 1800
Vehicle_105 (45.551424314606229871,-73.572244427628234575) (48.583776221079723712,-67.458117667721012367) 109000 253 1800
Vehicle_5 (45.50161302871688207,-71.652113966628348862) (48.34168953583078121,-71.176354507744576949) 109000 253 1800
Vehicle_155 (48.964745151434804882,-67.492715755950840162) (45.503872676143942044,-73.645105244177401005) 109000 253 1800
Vehicle_55 (48.360340919685341987,-71.065710814873142454) (45.677015423763066337,-71.682521933646398793) 109000 253 1800
Vehicle_61 (48.444195131590070957,-71.531361477062731069) (45.688137971752944111,-71.676000953784438252) 109000 282 1800
Vehicle_11 (45.508052216892494357,-71.682092303134268718) (48.48060973504393445,-70.883619989557985264) 109000 282 1800
Vehicle_161 (48.849555297626253036,-67.608837913171157652) (45.48025922910091623,-73.620537518089619766) 109000 282 1800
Vehicle_111 (45.521783340173080035,-73.613016732194452629) (48.835350142910854743,-67.30080699972930347) 109000 282 1800
Vehicle_99 (48.473824213457483268,-71.363551246054655053) (45.705108894591631952,-71.675033949621138163) 109000 284 1800
Vehicle_199 (48.654216960153505056,-67.420878894169035789) (45.497515027977513569,-73.625116100526454943) 109000 284 1800
Vehicle_149 (45.510240334527040318,-73.607347674979251906) (48.951282131027234357,-67.487975892844374926) 109000 284 1800
Vehicle_49 (45.532937136195691608,-71.690406540556722348) (48.400002402672619439,-71.528294460066604188) 109000 284 1800
Vehicle_63 (48.661206456796321618,-71.264829937931992276) (45.597298697432954384,-71.659664144054076473) 109000 384 1800
Vehicle_13 (45.683731477993056558,-71.686906914389524559) (48.436914951997330547,-70.959309790470058488) 109000 384 1800
Vehicle_163 (48.693159637943516316,-67.392035303621199205) (45.538598091941167922,-73.624086522640013186) 109000 384 1800
Vehicle_113 (45.559072170860801521,-73.574186784128727368) (48.870931755191158175,-67.181062568637415211) 109000 384 1800
Vehicle_1 (45.706671932010436876,-70.752117127156211041) (48.504781849662037985,-71.14495254368192434) 109000 464 1800
Vehicle_151 (48.801554827282352278,-67.425175797011988266) (45.555419471198149495,-73.620770024698728662) 109000 464 1800
Vehicle_51 (48.392339265035808182,-71.17943924290162272) (45.663302173277656948,-71.688974336608467297) 109000 464 1800
Vehicle_101 (45.533174620995637838,-73.612701462883492809) (48.814924136152264111,-67.518257930044498494) 109000 464 1800
Vehicle_98 (48.449222152473424785,-71.02605843827525689) (45.710965518692120213,-71.68922751631643564) 109000 476 1800
Vehicle_198 (48.858765344739161662,-67.19877493911697286) (45.559513763914885942,-73.649441290329804133) 109000 476 1800
Vehicle_48 (45.612013664547603753,-71.645903978769297282) (48.404457964600538844,-71.379855121788395422) 109000 476 1800
Vehicle_148 (45.513568658625040086,-73.597351355940162421) (48.619553870400871176,-67.365974010961778617) 109000 476 1800
Vehicle_174 (48.964219294299695662,-67.179275192176433507) (45.527188924575234807,-73.644865261185159966) 109000 499 1800
Vehicle_24 (45.607887490798532326,-71.676193619929165379) (48.418487923729614408,-70.870178764143247463) 109000 499 1800
Vehicle_74 (48.516912446771797818,-71.014708649178132305) (45.678620920570843111,-71.650091826495113878) 109000 499 1800
Vehicle_124 (45.488863158329550629,-73.643511585582245971) (48.650780965410646672,-67.272737401989331829) 109000 499 1800
Vehicle_50 (45.702230990340240169,-71.684367519767690169) (48.41658872596733687,-71.664475971350015016) 109000 552 1800
Vehicle_200 (48.681365375271404616,-67.390256086476711062) (45.49380406494528728,-73.576096464418228038) 109000 552 1800
Vehicle_150 (45.555430571916311067,-73.609003866020970008) (48.910001873205736445,-67.042245622552883333) 109000 552 1800
Vehicle_100 (48.318400704278374747,-71.00135819097130252) (45.538039198036841526,-71.677060679409024146) 109000 552 1800
Vehicle_137 (45.485461910774212413,-73.56620235757527837) (48.774700384127669395,-67.365370913016732857) 109000 744 1800
Vehicle_37 (45.652463904621761515,-71.67066241078887856) (48.62220713747543499,-71.55217354049401024) 109000 744 1800
Vehicle_187 (48.699821405533697316,-67.254458852240475153) (45.531148855263936071,-73.566113970228727226) 109000 744 1800
Vehicle_87 (48.392491459744746862,-71.188437866022184153) (45.663903956228985237,-71.656996177252381131) 109000 744 1800
Vehicle_195 (48.826304398820667529,-67.465554946840342154) (45.528587180127694012,-73.640683286149581477) 109000 820 1800
Vehicle_95 (48.511226989928651676,-70.997638314425955741) (45.666208331603492354,-71.653581324441361744) 109000 820 1800
Vehicle_45 (45.480599358157675738,-71.669268529305739435) (48.454596857074228922,-71.471031074321132337) 109000 820 1800
Vehicle_145 (45.532382010688763785,-73.638363274309810436) (48.827645969764674305,-67.418167917292791458) 109000 820 1800
Vehicle_170 (48.6361020426612356,-67.122306231629650597) (45.544286872659014875,-73.603002882860351974) 109000 900 1800
Vehicle_20 (45.619779126473638087,-71.615619924091816983) (48.326795862783349378,-71.41814464921164074) 109000 900 1800
Vehicle_120 (45.479806733480685921,-73.604453899471153022) (48.86106876838550761,-67.446876449252485486) 109000 900 1800
Vehicle_70 (48.3098525883766996,-71.325657135364608052) (45.626342735884968249,-71.661912337186066679) 109000 900 1800
Vehicle_117 (45.513159333834906306,-73.588019618221778728) (48.92001834475770039,-67.30117617532540919) 109000 1001 1800
Vehicle_167 (48.574537393658523854,-67.224429415198841298) (45.535767048366828647,-73.646955866143684943) 109000 1001 1800
Vehicle_17 (45.672556980079498601,-71.689738162779008235) (48.573413524190009127,-71.156132352110844863) 109000 1001 1800
Vehicle_67 (48.673207530067372772,-70.944022335516535804) (45.60085606024378535,-71.635813138768185127) 109000 1001 1800
Vehicle_116 (45.486895911474896081,-73.588244447853270458) (48.810840445145466049,-67.339830544073194574) 109000 1007 1800
Vehicle_16 (45.600082297791807662,-71.636346151268369908) (48.525529580182755751,-70.908802095058518944) 109000 1007 1800
Vehicle_66 (48.378838094832033789,-71.615949084347974463) (45.498171060173916658,-71.651740552435867926) 109000 1007 1800
Vehicle_166 (48.627165494220761843,-67.470058721691614778) (45.519450616061824633,-73.652815772848967413) 109000 1007 1800
Vehicle_33 (45.707239727668337537,-71.675796602015608983) (48.407611257780175151,-71.066899847687366787) 109000 1059 1800
Vehicle_83 (48.420907554580182364,-71.514634855580965223) (45.689970752365098861,-71.685297937887483499) 109000 1059 1800
Vehicle_183 (48.861204369538967285,-66.995371091667664132) (45.478077452852716078,-73.595394130838386104) 109000 1059 1800
Vehicle_133 (45.519486333875953221,-73.592226158009850678) (48.932285011492915316,-67.163655667481123146) 109000 1059 1800
Vehicle_162 (48.968181191313604472,-67.202300904990607933) (45.513431104826516105,-73.641389871236043518) 109000 1333 1800
Vehicle_62 (48.350453502217398238,-71.010576586377297303) (45.633045000107955502,-71.659323067876101732) 109000 1333 1800
Vehicle_12 (45.672474778484037472,-71.68216888374371365) (48.510133756349340217,-71.490421880047108516) 109000 1333 1800
Vehicle_112 (45.488027642856309285,-73.591864543040358626) (48.711557335480456743,-67.536276516143516346) 109000 1333 1800
Vehicle_69 (48.604344243673018866,-71.272888766430085639) (45.640584337853901786,-71.637283593241704693) 109000 1360 1800
Vehicle_19 (45.535966645267400565,-71.691583148906218526) (48.618545870154633803,-71.228986604311813835) 109000 1360 1800
Vehicle_169 (48.93172461955321495,-67.222686667919589354) (45.563790045841969345,-73.653706687342349824) 109000 1360 1800
Vehicle_119 (45.546075142263617863,-73.634728825961161647) (48.901021751135488103,-67.257403774870709867) 109000 1360 1800
Vehicle_93 (48.635471460286012757,-71.20160120157459005) (45.6151791053554021,-71.658479199803167603) 109000 1405 1800
Vehicle_143 (45.538269023287071491,-73.569132295495933249) (48.8338252564239923,-67.429540073050659998) 109000 1405 1800
Vehicle_43 (45.6269207648775037,-71.664647019086302748) (48.450814542673079188,-70.942119458385704434) 109000 1405 1800
Vehicle_193 (48.619307769830307109,-67.389038853265560647) (45.550278168143961466,-73.582485184169442505) 109000 1405 1800
Vehicle_27 (45.602677201298419618,-71.635082290340278632) (48.319140187711766998,-71.303680740891579148) 109000 1557 1800
Vehicle_177 (48.571708830237248833,-67.502494685606336589) (45.531395139640743253,-73.562052671392891057) 109000 1557 1800
Vehicle_77 (48.353475358231534642,-71.232863175647864296) (45.594579535206023024,-71.636901794149437706) 109000 1557 1800
Vehicle_127 (45.543990360088869807,-73.601864875915254061) (48.71321018453000562,-67.196041427605933904) 109000 1557 1800
Vehicle_175 (48.836231398972316242,-67.134704963851916659) (45.478952011569390379,-73.566968592722062681) 109000 1590 1800
Vehicle_125 (45.489569851401803646,-73.64291791674686749) (48.791497014054755255,-67.442244680627496223) 109000 1590 1800
Vehicle_75 (48.461566718326722025,-71.376988155432414374) (45.649639865186223631,-71.663678763272400829) 109000 1590 1800
Vehicle_25 (45.603851601181588649,-71.658724725072829642) (48.376044500502622725,-71.293341577869725256) 109000 1590 1800
Vehicle_141 (45.512681341342506869,-73.570829587900760771) (48.908288938576930605,-67.438478316381363697) 109000 1592 1800
Vehicle_41 (45.662056847923970793,-71.675082312972548948) (48.518812138347080065,-71.595603650217427116) 109000 1592 1800
Vehicle_191 (48.612511688564957524,-67.278459145221162885) (45.510843342212403684,-73.616304696950038533) 109000 1592 1800
Vehicle_91 (48.389897800299266351,-71.226007220361339023) (45.503034049840088926,-71.661475701189388587) 109000 1592 1800
Vehicle_3 (45.679383558327877779,-71.662226010051952585) (48.579159228608965293,-71.216132241352951837) 109000 1657 1800
Vehicle_53 (48.308228161337517292,-71.158030371340231568) (45.676971851179338557,-71.658145673999911196) 109000 1657 1800
Vehicle_153 (48.624365597268962347,-67.150220738760609152) (45.494089078072804,-73.612810959955879753) 109000 1657 1800
Vehicle_103 (45.537292908042253714,-73.613033382507651936) (48.850822760405350209,-67.410422617555624925) 109000 1657 1800
Vehicle_2 (45.625118786680857852,-71.631241056906716835) (48.481156758524527106,-71.751311609079237996) 109000 2000 1800
Vehicle_52 (48.293293806422745718,-70.945939528556039022) (45.524855130658608005,-71.675870920939772191) 109000 2000 1800
Vehicle_152 (48.889246232753507115,-67.251073453522877799) (45.566631100780895736,-73.655789801856400345) 109000 2000 1800
Vehicle_102 (45.487307404535542332,-73.584101816989488043) (48.777466630123889502,-67.496830970948877848) 109000 2000 1800
Vehicle_104 (45.53303311491611538,-73.613597282247070552) (48.788565128478531108,-67.085540201586184139) 109000 2534 1800
Vehicle_154 (48.872877088054401895,-67.58287875364057129) (45.532412969770895472,-73.635142185182758112) 109000 2534 1800
Vehicle_4 (45.616270353247116986,-71.624934763535662796) (48.400068625908346576,-71.371486975412253173) 109000 2534 1800
Vehicle_54 (48.448706224139215237,-71.101097371044915008) (45.485695670296536264,-71.646553569676541429) 109000 2534 1800
Vehicle_156 (48.657801048814349087,-67.31626728306247287) (45.52572333325068854,-73.572921990008936177) 109000 2611 1800
Vehicle_106 (45.539879190592245095,-73.600793236136283326) (48.851750033654802507,-67.630084703988359252) 109000 2611 1800
Vehicle_6 (45.671687281103082512,-71.681730804102016918) (48.392685240958627446,-71.098425182410394996) 109000 2611 1800
Vehicle_56 (48.608374687606698217,-71.374143614616841091) (45.515926498754268437,-71.684709730833134245) 109000 2611 1800
Vehicle_129 (45.524308295214254372,-73.565979746187309729) (48.97813236280676108,-67.061779989708597327) 109000 2631 1800
Vehicle_29 (45.651349269720128632,-71.661331081261820941) (48.683306599125081959,-71.439745134056835241) 109000 2631 1800
Vehicle_79 (48.371415408532818958,-70.8577416593498981) (45.602979610911411612,-71.660947588181542756) 109000 2631 1800
Vehicle_179 (48.572500310010333635,-67.259917528576892209) (45.504809762675158424,-73.61265621709932816) 109000 2631 1800
Vehicle_178 (48.800317488590387427,-67.084773106718159852) (45.490625499504496076,-73.61867449676114461) 109000 2847 1800
Vehicle_78 (48.696545805383969707,-71.010181005844430047) (45.695241314716838588,-71.677471997161120498) 109000 2847 1800
Vehicle_28 (45.673947558905055644,-71.657607165868924426) (48.600419538832319688,-71.131567253812008289) 109000 2847 1800
Vehicle_128 (45.54844655297355871,-73.625006732345497085) (48.859235814986540447,-67.005952613687739472) 109000 2847 1800
Vehicle_22 (45.687081174377645709,-71.690255191202211904) (48.461402672261549185,-70.932843530843626922) 109000 2871 1800
Vehicle_122 (45.476488189478239121,-73.607206437709578495) (48.877134421963198463,-67.25840551346027496) 109000 2871 1800
Vehicle_172 (48.563749627647972318,-67.456189963694598077) (45.520474554988282989,-73.64843466292855112) 109000 2871 1800
Vehicle_72 (48.415870766444506046,-71.67763512390570213) (45.662946560054763268,-71.689444015194723647) 109000 2871 1800
Vehicle_144 (45.490198030809715135,-73.612035551619797502) (48.72092600103850657,-67.604437604669612938) 109000 2879 1800
Vehicle_44 (45.691670346002183578,-71.692053966727229408) (48.564479217653030219,-70.952573390162839928) 109000 2879 1800
Vehicle_94 (48.405536824110598104,-71.305031715542980919) (45.610651790651964177,-71.629345130104780992) 109000 2879 1800
Vehicle_194 (48.784868784718867118,-67.348675279072551803) (45.551802595673095198,-73.604052866503295149) 109000 2879 1800
Vehicle_180 (48.664888244607361401,-67.32238189514316673) (45.49555004220452048,-73.584238913485791045) 109000 3046 1800
Vehicle_30 (45.691297239661984975,-71.67295906940935879) (48.399961186012070868,-71.254585624715204517) 109000 3046 1800
Vehicle_80 (48.674809394255809991,-71.217598853187581653) (45.645352136107526064,-71.668112353930624181) 109000 3046 1800
Vehicle_130 (45.517942560289647247,-73.644891164598618616) (48.878215688476728928,-67.464808949528574544) 109000 3046 1800
Vehicle_85 (48.601735745576867487,-71.373095562354933463) (45.476768469160006703,-71.674012775403681985) 109000 3442 1800
Vehicle_35 (45.602242585570500921,-71.67084771108335417) (48.737183745610998642,-71.041298429206847231) 109000 3442 1800
Vehicle_135 (45.516082356854298041,-73.59888807421923218) (48.614485952035117577,-67.450288422277921541) 109000 3442 1800
Vehicle_185 (48.900514489990193567,-67.299789698344682165) (45.482164566003014272,-73.654565984347229346) 109000 3442 1800
Vehicle_189 (48.724229588957172155,-67.349985671060480286) (45.536533052280596223,-73.587662870494568779) 109000 3879 1800
Vehicle_89 (48.438963111691947461,-71.142610859450371663) (45.64729854515444174,-71.680814266277721458) 109000 3879 1800
Vehicle_39 (45.642644393988987872,-71.644963044456432044) (48.601895745468247867,-71.06657781229404236) 109000 3879 1800
Vehicle_139 (45.563315308225689648,-73.629841358933902029) (48.7602227087535951,-67.260807969356037006) 109000 3879 1800
Vehicle_131 (45.550219281177724895,-73.563208491902955188) (48.827150267806750605,-67.119119015295623853) 109000 3982 1800
Vehicle_181 (48.844497473622951134,-67.226692014557158927) (45.566832813874498243,-73.601233663770358362) 109000 3982 1800
Vehicle_31 (45.61040042566996533,-71.673571278118387795) (48.428728546939076693,-71.152334167071103366) 109000 3982 1800
Vehicle_81 (48.517318563779340934,-71.205179575388640956) (45.684156370593832719,-71.689095478199504896) 109000 3982 1800
Vehicle_64 (48.480265859545973228,-71.00638890949929305) (45.61403261289763833,-71.622139747033315871) 109000 4371 1800
Vehicle_14 (45.642779999189485807,-71.681061759659044696) (48.353841986367463335,-70.945461893924772312) 109000 4371 1800
Vehicle_114 (45.522561799290961915,-73.646489728729633839) (48.761614671825341816,-67.009183580452145179) 109000 4371 1800
Vehicle_164 (48.625207451738859277,-67.512212787263990776) (45.563212163859631687,-73.56869225842757487) 109000 4371 1800
Vehicle_86 (48.723314743986286146,-71.198648922436063913) (45.699574124980003376,-71.689062658919354476) 109000 4622 1800
Vehicle_36 (45.686199803515101792,-71.650393761372527024) (48.305292116978144179,-71.186431131698185482) 109000 4622 1800
Vehicle_136 (45.535186615431847201,-73.64211152273806249) (48.659410798101028206,-67.523027025000715184) 109000 4622 1800
Vehicle_186 (48.882035957394741388,-67.37788511582307649) (45.552068699064776069,-73.648715990059727687) 109000 4622 1800
Vehicle_57 (48.723740913879453274,-71.354011360656301122) (45.605165397643844472,-71.681000078987921142) 109000 4745 1800
Vehicle_107 (45.522247151302643431,-73.628786836016999473) (48.62628510632808343,-67.614452107671340286) 109000 4745 1800
Vehicle_7 (45.66184195041217464,-71.637763837469492501) (48.445686720384230739,-70.871211445357857883) 109000 4745 1800
Vehicle_157 (48.611646493714452788,-67.186960512870967932) (45.550289297925829146,-73.640734123736947936) 109000 4745 1800
Vehicle_190 (48.552101644942531777,-67.294414641387291454) (45.534463637056859397,-73.633757085375975748) 109000 5257 1800
Vehicle_40 (45.708431941287180678,-71.670223887182800127) (48.351762425807365275,-71.25527146649672261) 109000 5257 1800
Vehicle_140 (45.539395249494667439,-73.585547737899418053) (48.747243607600012183,-67.119583729773864889) 109000 5257 1800
Vehicle_90 (48.635307643060663452,-70.929475033571321774) (45.642343545581596231,-71.645031196323856193) 109000 5257 1800
Vehicle_10 (45.686060729316302798,-71.660831805431712382) (48.401976443998520949,-70.996219546184732963) 109000 5479 1800
Vehicle_110 (45.564053616026690463,-73.61798457364541548) (48.689006136007542125,-67.328622735422229084) 109000 5479 1800
Vehicle_160 (48.737630103457810549,-67.336075029937489944) (45.546493453413297914,-73.593677313095994919) 109000 5479 1800
Vehicle_60 (48.52147292127468603,-71.441877770074455611) (45.609123690116625482,-71.625506980552444247) 109000 5479 1800
Vehicle_8 (45.609716358228844513,-71.638901689414140606) (48.427403982944980498,-71.319898604022469613) 109000 5524 1800
Vehicle_108 (45.550950339386609755,-73.613985933064853384) (48.936288121252850658,-67.153246241088396573) 109000 5524 1800
Vehicle_158 (48.830615512387716137,-67.614174771923615026) (45.486321430928121856,-73.646539276728404388) 109000 5524 1800
Vehicle_58 (48.578541783019375089,-71.586201308240532626) (45.671104566786937085,-71.658240392604383828) 109000 5524 1800
Vehicle_192 (48.923439642312452236,-67.445687931627134049) (45.498358847996748011,-73.644999265688227297) 109000 5531 1800
Vehicle_42 (45.617733030882455125,-71.68974795518984422) (48.594286693277162215,-71.286554757314576136) 109000 5531 1800
Vehicle_92 (48.737371643564195267,-71.079914180486895248) (45.660451831068058937,-71.659588988400628295) 109000 5531 1800
Vehicle_142 (45.548620940234407328,-73.647906709975046624) (48.913399383437734969,-67.084796510006555081) 109000 5531 1800
Vehicle_26 (45.656238356441534165,-71.640207041760305628) (48.660301028799516132,-70.894256408336744357) 109000 5543 1800
Vehicle_176 (48.930664692976236552,-67.461987195280784135) (45.486448410595507141,-73.586423803335094362) 109000 5543 1800
Vehicle_76 (48.512399691860139228,-71.480971354208463708) (45.656810586822821563,-71.679147131978595553) 109000 5543 1800
Vehicle_126 (45.559342034426300927,-73.609103356497300297) (48.862398576108816428,-67.608005277245865727) 109000 5543 1800
Vehicle_18 (45.589163600128443932,-71.661004359891023796) (48.736782029728352938,-71.118412634524929672) 109000 5586 1800
Vehicle_118 (45.520588111964798372,-73.655981489386846306) (48.751679157753166294,-67.617258039603399311) 109000 5586 1800
Vehicle_68 (48.561870502570904762,-71.588960168114013527) (45.513147849952424906,-71.67878074395021315) 109000 5586 1800
Vehicle_168 (48.673236801908501548,-67.627553551531875087) (45.503219028834571702,-73.591819119212900091) 109000 5586 1800
Vehicle_173 (48.757674935330705068,-67.141508939680818457) (45.559259664412671498,-73.576360984906600038) 109000 5737 1800
Vehicle_23 (45.488112083239286676,-71.685763545924444884) (48.474084403837274238,-71.693221091242136822) 109000 5737 1800
Vehicle_123 (45.542005819640252184,-73.65076014042270458) (48.582218282277935373,-67.49479408730690011) 109000 5737 1800
Vehicle_73 (48.619695314522580532,-70.868406015499317618) (45.61719336785341028,-71.615407577399665229) 109000 5737 1800
Vehicle_82 (48.433664843949571832,-71.094597194299495868) (45.598603346235805134,-71.668436026580380371) 109000 5843 1800
Vehicle_182 (48.517965272949624023,-67.316466041788331154) (45.535295209048925358,-73.593502316017094245) 109000 5843 1800
Vehicle_32 (45.677273170438510874,-71.654665855346081571) (48.378541099774857059,-71.201577687198891908) 109000 5843 1800
Vehicle_132 (45.541732743290964436,-73.651001272958197319) (48.652450723984465242,-67.522438050341023086) 109000 5843 1800
Vehicle_46 (45.605106955005716429,-71.652103238488990655) (48.764181060510075838,-71.123357161668693038) 109000 6162 1800
Vehicle_146 (45.544460641342638496,-73.570187240583067023) (48.60081603982546028,-67.389620351045138591) 109000 6162 1800
Vehicle_96 (48.408362488837433091,-71.003812719310559487) (45.635828377764120489,-71.666182809194737047) 109000 6162 1800
Vehicle_196 (48.594593710749869331,-67.419634641347926163) (45.530680328039629501,-73.590021253215780916) 109000 6162 1800
Vehicle_171 (48.703807854863804039,-67.202264107930702153) (45.5216504601568559,-73.584001427484849955) 109000 6576 1800
Vehicle_71 (48.473593738918978602,-71.588504735843173421) (45.62228333910403677,-71.630420240698882139) 109000 6576 1800
Vehicle_121 (45.532974552791316114,-73.583637526248068639) (48.514356526683094728,-67.300651661526629255) 109000 6576 1800
Vehicle_21 (45.521770254058807836,-71.68789979738598106) (48.597584387476601364,-70.957972396022583439) 109000 6576 1800
Vehicle_88 (48.670259035167994455,-71.061749834232713852) (45.608763686813894367,-71.645060309939040621) 109000 6665 1800
Vehicle_188 (48.71606076604981439,-67.424731044076622766) (45.484725067589046432,-73.646088392976110981) 109000 6665 1800
Vehicle_138 (45.50127810162859987,-73.610686283476056246) (48.791428291089239622,-67.142764104452993479) 109000 6665 1800
Vehicle_38 (45.665562640343146938,-71.644572950501711261) (48.628245308231775823,-71.084872497220743526) 109000 6665 1800
Vehicle_15 (45.542335193293403961,-71.689218622737683972) (48.759174628691440034,-71.11277655258048469) 109000 6761 1800
Vehicle_165 (48.756837484656976756,-67.344621043766451862) (45.52170970868805,-73.62207071325943275) 109000 6761 1800
Vehicle_65 (48.556582706059472798,-71.283894616391393129) (45.483146852827289308,-71.680301253808764272) 109000 6761 1800
Vehicle_115 (45.495695013050074351,-73.574225751496257431) (48.721566530064514211,-67.48725225817206308) 109000 6761 1800
Vehicle_184 (48.854462209619178736,-67.578417969873328275) (45.551630526506642127,-73.631443769138243738) 109000 7034 1800
Vehicle_34 (45.585801190639678282,-71.63273250997521302) (48.524529780128482059,-71.450324360026513659) 109000 7034 1800
Vehicle_134 (45.514179510245590166,-73.602489244867598472) (48.836325111808491783,-67.535855255008897302) 109000 7034 1800
Vehicle_84 (48.623106180842420088,-71.482048450842384568) (45.605467086504425822,-71.690888125065583836) 109000 7034 1800
Vehicle_147 (45.55836763096395714,-73.653726374338333471) (48.901217186180694796,-67.56295541034232599) 109000 7091 1800
Vehicle_47 (45.500424029188117458,-71.655091588287831428) (48.741209278038652997,-71.154082100707753966) 109000 7091 1800
Vehicle_97 (48.381275075652482087,-71.194435141724028426) (45.699429726865986368,-71.672941216975075918) 109000 7091 1800
Vehicle_197 (48.910573954258815377,-67.064945569077934806) (45.556721320640534145,-73.644636428421975438) 109000 7091 1800
