Vehicle_9 (45.484132173699947543,-73.656171892049826511) (48.56766864201205891,-67.432174470441964331) 109000 142 1800
Vehicle_84 (48.753466360053501205,-67.396172667799390865) (45.556265389497220042,-73.644602749546606901) 109000 142 1800
Vehicle_5 (45.519873932601868205,-73.603125380072143003) (48.717751114088443387,-67.543937444622770272) 109000 253 1800
Vehicle_80 (48.794448094543206196,-67.036979690691481437) (45.519089228880865505,-73.590551952068210539) 109000 253 1800
Vehicle_11 (45.533356281110968666,-73.619612713619901001) (48.661678079371974093,-67.605070753390279492) 109000 282 1800
Vehicle_86 (48.81426879765582072,-67.304929736153056297) (45.476342250237244969,-73.644852881341122952) 109000 282 1800
Vehicle_124 (48.906587848728683809,-67.323613826163068552) (45.485856303199746264,-73.623792058844742314) 109000 284 1800
Vehicle_49 (45.480358767204236869,-73.5757489314330968) (48.847270676049895144,-67.26376962527616854) 109000 284 1800
Vehicle_13 (45.479522157338443833,-73.588826025807421161) (48.774860615377811257,-67.343797865829429838) 109000 384 1800
Vehicle_88 (48.770773564683445045,-67.184628685566622153) (45.555839473249982063,-73.618306830446542222) 109000 384 1800
Vehicle_1 (45.554401988315042615,-73.587956975240317092) (48.627188536383151529,-67.403951731170153039) 109000 464 1800
Vehicle_76 (48.804580155705409084,-67.417615979468607179) (45.557010823084631568,-73.632158755569477648) 109000 464 1800
Vehicle_123 (48.689775082038394771,-67.501926537746143708) (45.483232340960014994,-73.572315494191087737) 109000 476 1800
Vehicle_48 (45.492324744092854871,-73.63046197122622516) (48.81337486618092214,-67.290617231799870979) 109000 476 1800
Vehicle_24 (45.48942535861573333,-73.604093882441461005) (48.962110453447920122,-67.132667331275911238) 109000 499 1800
Vehicle_99 (48.64369238379116922,-67.255996696757534892) (45.525674481809318195,-73.573908148473933011) 109000 499 1800
Vehicle_125 (48.827113679987085959,-67.566828062463486049) (45.497383787277996703,-73.598700976561843845) 109000 552 1800
Vehicle_50 (45.491325741066539479,-73.622434912244060001) (48.759676359179003668,-67.166283602226798166) 109000 552 1800
Vehicle_37 (45.537178482049533557,-73.587296744805129833) (48.953566078960975005,-67.049022816484139753) 109000 744 1800
Vehicle_112 (48.538945521258746396,-67.512047515135222397) (45.489459789688829972,-73.623491288750273043) 109000 744 1800
Vehicle_68 (45.507621110158012812,-73.640211872616262667) (48.847235523984643635,-67.602339807249933301) 109000 789 1800
Vehicle_143 (48.948041187950003916,-67.260786283882310954) (45.53125164120531565,-73.62426548119796621) 109000 789 1800
Vehicle_120 (48.734090662826318407,-67.593152055859462735) (45.515690025206460234,-73.602898475407471324) 109000 820 1800
Vehicle_45 (45.533835587579638116,-73.641603692616641297) (48.960656262982972464,-67.303628236874885715) 109000 820 1800
Vehicle_20 (45.558132253433306857,-73.629355186036093528) (48.638698791566518764,-67.225832936366330728) 109000 900 1800
Vehicle_95 (48.789012873545615889,-67.190402541196377229) (45.547738451927045844,-73.577764139823656819) 109000 900 1800
Vehicle_17 (45.540749545194138648,-73.589203446224473737) (48.727670211868009176,-67.497503114657789069) 109000 1001 1800
Vehicle_92 (48.855417424808550209,-67.094600838150768141) (45.545857280302364245,-73.607349403662098553) 109000 1001 1800
Vehicle_91 (48.527187442091275216,-67.605509521560293251) (45.52035277146867287,-73.641677914424107598) 109000 1007 1800
Vehicle_16 (45.527038983402341898,-73.616419420799516615) (48.842731469263100053,-67.452762943088615089) 109000 1007 1800
Vehicle_108 (48.818958061132782689,-67.484055402261546419) (45.544247344457971849,-73.57503723890967251) 109000 1059 1800
Vehicle_33 (45.486754371925478324,-73.626243468571416884) (48.894689642738754287,-67.225909924532643913) 109000 1059 1800
Vehicle_132 (48.874277279712572408,-67.508556953762436592) (45.482737718018562134,-73.608306349489424747) 109000 1297 1800
Vehicle_57 (45.520822929113364808,-73.567224427399949604) (48.922900827283697822,-67.108492082437905424) 109000 1297 1800
Vehicle_75 (45.519087602288152539,-73.639293848800718933) (48.717591648656942027,-67.550097219031925988) 109000 1301 1800
Vehicle_150 (48.624551647169944602,-67.195056700810198436) (45.497536355169380329,-73.652092880632395122) 109000 1301 1800
Vehicle_12 (45.563864721110491018,-73.632849616306287999) (48.701741164425392583,-67.564470137024343899) 109000 1333 1800
Vehicle_87 (48.722973377563434383,-67.284700712484365681) (45.488844421872364876,-73.630905031180731157) 109000 1333 1800
Vehicle_94 (48.889987825362396734,-67.146729031095318874) (45.530982768015228146,-73.605994744437680311) 109000 1360 1800
Vehicle_19 (45.496492534834295896,-73.585516828440390213) (48.936382113186077447,-67.059454847899502283) 109000 1360 1800
Vehicle_118 (48.875981709912935003,-67.107817330076088069) (45.48881798481396288,-73.580982934908774951) 109000 1405 1800
Vehicle_43 (45.494445266363669589,-73.562990048751046857) (48.569252714033069651,-67.451615907500922731) 109000 1405 1800
Vehicle_102 (48.897398093179901934,-67.249982604006277143) (45.495572465708697507,-73.609645889050554501) 109000 1557 1800
Vehicle_27 (45.554706453492350704,-73.582901388454388325) (48.552502781859509184,-67.22477462075944743) 109000 1557 1800
Vehicle_25 (45.491219105494103303,-73.62359391195936098) (48.883068197947707745,-67.211265835584114825) 109000 1590 1800
Vehicle_100 (48.89515350641656255,-67.511119567671670438) (45.539187991851775905,-73.627072987525437497) 109000 1590 1800
Vehicle_116 (48.600208203200999435,-67.485299753596507344) (45.552951804106193379,-73.614577545584836571) 109000 1592 1800
Vehicle_41 (45.527925126164376479,-73.597685993905543) (48.860582836549426133,-67.373475078362275781) 109000 1592 1800
Vehicle_3 (45.486228379537500643,-73.645198162679491816) (48.640702161650757773,-67.379374821563999376) 109000 1657 1800
Vehicle_78 (48.555959175886520995,-67.323093064726521106) (45.530843481497377923,-73.631761734946053366) 109000 1657 1800
Vehicle_55 (45.525266057814036458,-73.60568676269566879) (48.817222121690790004,-67.055524458634025109) 109000 1694 1800
Vehicle_130 (48.946400288100008424,-67.051118431750992954) (45.495949712984412372,-73.594863576974759667) 109000 1694 1800
Vehicle_142 (48.910140729672910709,-67.467342321834095742) (45.558126624686806849,-73.645843577834796179) 109000 1894 1800
Vehicle_67 (45.522645364222420028,-73.618363603955714325) (48.687726718454072738,-67.457681682245620891) 109000 1894 1800
Vehicle_77 (48.706747704052276049,-67.324371329274910636) (45.514182052700228098,-73.579313730283075756) 109000 2000 1800
Vehicle_2 (45.536336712102873037,-73.631425032326419) (48.889812169599274227,-67.395805383404905342) 109000 2000 1800
Vehicle_69 (45.563123778995453961,-73.564287285687200324) (48.668881805471272628,-67.177354141880798011) 109000 2154 1800
Vehicle_144 (48.894687741938369641,-67.052268502819856621) (45.480703269183017312,-73.562023721622409766) 109000 2154 1800
Vehicle_62 (45.529635202376098846,-73.647983763073341379) (48.867260437170578768,-67.154245672884528062) 109000 2321 1800
Vehicle_137 (48.699536973959013153,-67.420710436455465242) (45.530569591671699925,-73.616699991800842895) 109000 2321 1800
Vehicle_4 (45.554039989876578431,-73.653328265344867987) (48.716943410201444919,-67.53079970028794321) 109000 2534 1800
Vehicle_79 (48.676735919061435709,-67.281756596077272548) (45.525319870551534507,-73.566552208706724514) 109000 2534 1800
Vehicle_61 (45.503476664938155238,-73.649485933460354659) (48.612319326736091796,-67.368419731399598049) 109000 2557 1800
Vehicle_136 (48.761232255100757982,-67.372559202207753515) (45.51880692387576488,-73.573182815076762608) 109000 2557 1800
Vehicle_81 (48.844577642427800868,-67.451216505130318524) (45.537822609478581626,-73.622129146779471398) 109000 2611 1800
Vehicle_6 (45.542955366799866113,-73.592594022148134059) (48.747693667895731551,-67.141107806441908679) 109000 2611 1800
Vehicle_29 (45.54891283068876362,-73.62707805322284571) (48.678771966763989099,-67.294352344174924951) 109000 2631 1800
Vehicle_104 (48.63235603745388147,-67.319097965799329586) (45.563486531338071472,-73.642673135712556132) 109000 2631 1800
Vehicle_149 (48.650354411061620397,-67.389457770543373272) (45.485135608876916535,-73.587454393536489761) 109000 2760 1800
Vehicle_74 (45.517643813010707277,-73.595607827193219919) (48.924657447151183476,-67.274184971657263077) 109000 2760 1800
Vehicle_134 (48.590877402506642113,-67.24377282294078384) (45.488277211169247494,-73.615097538284160805) 109000 2836 1800
Vehicle_59 (45.539344130938097521,-73.642238410704948137) (48.691574879135728793,-67.510551748568985886) 109000 2836 1800
Vehicle_28 (45.493939579341819979,-73.590840408115241189) (48.655883463455062099,-67.62159453109417484) 109000 2847 1800
Vehicle_103 (48.59276772070659689,-67.56194624450263575) (45.532377423458179067,-73.569557653621259874) 109000 2847 1800
Vehicle_97 (48.609616693207819083,-67.625359492740699352) (45.563543824072183952,-73.632706632897352961) 109000 2871 1800
Vehicle_22 (45.561021272635194634,-73.602689324176751029) (48.552647599536541634,-67.366704276834170173) 109000 2871 1800
Vehicle_44 (45.49018308955736245,-73.646285102202256212) (48.914729791747802778,-67.603694975211098495) 109000 2879 1800
Vehicle_119 (48.825669357100778711,-67.052287012020400425) (45.506334696477594548,-73.603264604807620231) 109000 2879 1800
Vehicle_30 (45.556857539036592186,-73.601590080191556353) (48.695500020013874121,-67.495044170128196015) 109000 3046 1800
Vehicle_105 (48.788884382881335,-67.580980426553153961) (45.544221280802581475,-73.65142073926513433) 109000 3046 1800
Vehicle_140 (48.743709508224206672,-67.455038479232115378) (45.521530974789271795,-73.576975296680799943) 109000 3210 1800
Vehicle_65 (45.51592422158682183,-73.63216529225636009) (48.811601846115991066,-67.370585849956739821) 109000 3210 1800
Vehicle_63 (45.492788148895385802,-73.618732240037786596) (48.699927401008807237,-67.521328305367092071) 109000 3417 1800
Vehicle_138 (48.959754686080373176,-67.017554218502297658) (45.554720003454178823,-73.563117054261596195) 109000 3417 1800
Vehicle_35 (45.482111418903564015,-73.570068666984937522) (48.948264581722256139,-67.340251304472872107) 109000 3442 1800
Vehicle_110 (48.64278808117735764,-67.204021619902974294) (45.483463728220918654,-73.617795791921082582) 109000 3442 1800
Vehicle_145 (48.548299065037447519,-67.493740945685459565) (45.492500329584814267,-73.605965583854228385) 109000 3640 1800
Vehicle_70 (45.515318068886060132,-73.652356794365417159) (48.627169471449441573,-67.192042179912718325) 109000 3640 1800
Vehicle_139 (48.899054498739509711,-67.195668207948614281) (45.520963334321017157,-73.571802995717462181) 109000 3701 1800
Vehicle_64 (45.533339668272923006,-73.606522967800628976) (48.884232941037538467,-67.082194709032606283) 109000 3701 1800
Vehicle_126 (48.654405523151190494,-67.56407368368847699) (45.495857386435069714,-73.639152101658410743) 109000 3741 1800
Vehicle_51 (45.503868383142403786,-73.581870509891359688) (48.809767308275255004,-67.420383288037413649) 109000 3741 1800
Vehicle_114 (48.559702823411328154,-67.549148106899622235) (45.495152228127551552,-73.593065111871240447) 109000 3879 1800
Vehicle_39 (45.503317432938104048,-73.583970913094930211) (48.660110044060722601,-67.351382971663824151) 109000 3879 1800
Vehicle_31 (45.501066999279998981,-73.572382979467803921) (48.87621234181131058,-67.318707616999020615) 109000 3982 1800
Vehicle_106 (48.711807982977433085,-67.326238492810134062) (45.492831957434816559,-73.565291148324391202) 109000 3982 1800
Vehicle_14 (45.515205039340536075,-73.643258884174485956) (48.811007119985198699,-67.312842155733079608) 109000 4371 1800
Vehicle_89 (48.812005320365756234,-67.404985477705949393) (45.505327827148136066,-73.566379646345254173) 109000 4371 1800
Vehicle_36 (45.520114506761039763,-73.592586681461654052) (48.600560605557809879,-67.236871070005932438) 109000 4622 1800
Vehicle_111 (48.743704289146023712,-67.196602191851937391) (45.502686418347181529,-73.57724574545069629) 109000 4622 1800
Vehicle_7 (45.497746842018557345,-73.565360634258283312) (48.901378542885304057,-66.995560392038100872) 109000 4745 1800
Vehicle_82 (48.965439318772176591,-67.278746107240536389) (45.552894602163483739,-73.62549089990015716) 109000 4745 1800
Vehicle_66 (45.551853922690987986,-73.571792534286458931) (48.973359807754384576,-66.992655415489707593) 109000 4890 1800
Vehicle_141 (48.608446091341726003,-67.495046902813726319) (45.476546741972526888,-73.609929930419795596) 109000 4890 1800
Vehicle_56 (45.518567727765038455,-73.609002837378710637) (48.692283638466946627,-67.275161069804724434) 109000 4922 1800
Vehicle_131 (48.851752181633834482,-67.204542811820800807) (45.517919630946259701,-73.57665428956732967) 109000 4922 1800
Vehicle_115 (48.822286446020399353,-67.599139921439686418) (45.520412015377701209,-73.602063179774205537) 109000 5257 1800
Vehicle_40 (45.509490601249538599,-73.596829311520451711) (48.957087969678553918,-67.192459028168372015) 109000 5257 1800
Vehicle_10 (45.540306623109742645,-73.632398993696114076) (48.682919950448102497,-67.188555858338602889) 109000 5479 1800
Vehicle_85 (48.830830854540764108,-67.207966286598420425) (45.535773832338620082,-73.586386904812385978) 109000 5479 1800
Vehicle_8 (45.489808013987840241,-73.638365158472907979) (48.710942098844419945,-67.528111741881545527) 109000 5524 1800
Vehicle_83 (48.864051543450280235,-67.521826197281086479) (45.519038676624703044,-73.637993009068836159) 109000 5524 1800
Vehicle_117 (48.977942224473231647,-67.010440614009709748) (45.519001069354651179,-73.635945237799845131) 109000 5531 1800
Vehicle_42 (45.475811418802884134,-73.639769532832374921) (48.660583363263469892,-67.398502846915391729) 109000 5531 1800
Vehicle_54 (45.520589966856455533,-73.605010587119892307) (48.685733957984567155,-67.3854380842015388) 109000 5542 1800
Vehicle_129 (48.796569415501373612,-67.516682390131563807) (45.506113290174731389,-73.620140309962977199) 109000 5542 1800
Vehicle_101 (48.726540405207472872,-67.272489774190262324) (45.518723086324023086,-73.607519536836775842) 109000 5543 1800
Vehicle_26 (45.498612806365052563,-73.579738032718566387) (48.579363148599298938,-67.311533564997887424) 109000 5543 1800
Vehicle_18 (45.543897432755940713,-73.594595794529581667) (48.951787079698448224,-67.022115000219926628) 109000 5586 1800
Vehicle_93 (48.931832599360596703,-67.08644872441085738) (45.565628606051816973,-73.646299285841905657) 109000 5586 1800
Vehicle_71 (45.511151488293535294,-73.618135624591900523) (48.643165199945336497,-67.236131826232892195) 109000 5701 1800
Vehicle_146 (48.943663210304812594,-67.051668923061299665) (45.564623731952984542,-73.606646601452737855) 109000 5701 1800
Vehicle_23 (45.507547101382535004,-73.577511685575686329) (48.600146726726315194,-67.491375620805570179) 109000 5737 1800
Vehicle_98 (48.654302364551469395,-67.54711661973620096) (45.538394272454794987,-73.611673251631188464) 109000 5737 1800
Vehicle_133 (48.619666800446331933,-67.414337083019788111) (45.481325341801017714,-73.605243934519364757) 109000 5822 1800
Vehicle_58 (45.532635088424392222,-73.61009770811104147) (48.607916490096570783,-67.413891435029995591) 109000 5822 1800
Vehicle_107 (48.839484747577834867,-67.055965396386810085) (45.5115417826853772,-73.588883240927259521) 109000 5843 1800
Vehicle_32 (45.538977482942307518,-73.616424726128684597) (48.947055320851752924,-67.09728782423968596) 109000 5843 1800
Vehicle_60 (45.518873150390589899,-73.562878659665045689) (48.947762616697751525,-67.331577819810220831) 109000 5931 1800
Vehicle_135 (48.874507740455300109,-67.166548575083353967) (45.525321532237256861,-73.58980098246699697) 109000 5931 1800
Vehicle_121 (48.962231392545504605,-67.257744171037344927) (45.554187366553001937,-73.605149630271796468) 109000 6162 1800
Vehicle_46 (45.514391597564625158,-73.612896856434119286) (48.508559744936242453,-67.249360825940172504) 109000 6162 1800
Vehicle_73 (45.557260411377896503,-73.597698685643251792) (48.597464990050944778,-67.55800947546987345) 109000 6280 1800
Vehicle_148 (48.810372012717060386,-67.588876069935380997) (45.513031035835872729,-73.653379138007153415) 109000 6280 1800
Vehicle_53 (45.521014354497445709,-73.601418321250250187) (48.634617794052360296,-67.51667804717379795) 109000 6559 1800
Vehicle_128 (48.860098142191631609,-67.619687843677752426) (45.477938509167607606,-73.585618812850825066) 109000 6559 1800
Vehicle_21 (45.49146403771217706,-73.632782640193397583) (48.977255702427555661,-67.485119690206246901) 109000 6576 1800
Vehicle_96 (48.692440880539265891,-67.145386932715339867) (45.501500586673010673,-73.62619474724321833) 109000 6576 1800
Vehicle_113 (48.810145364085087749,-67.467583026196777496) (45.49336270634263002,-73.566270788564239069) 109000 6665 1800
Vehicle_38 (45.567657989089980219,-73.622525148465584266) (48.822628162891803072,-67.173847501490598688) 109000 6665 1800
Vehicle_52 (45.502670327748568013,-73.561206932865331964) (48.565232938217498315,-67.582845973098585546) 109000 6718 1800
Vehicle_127 (48.533678472715081398,-67.327319812658288356) (45.505312800804752271,-73.579391137163085546) 109000 6718 1800
Vehicle_90 (48.556639154891634291,-67.266735347395069766) (45.545485500163465531,-73.58662012017398979) 109000 6761 1800
Vehicle_15 (45.488316608401319741,-73.647024184443651507) (48.641060316075702019,-67.240419396648448469) 109000 6761 1800
Vehicle_147 (48.903985524078223079,-67.379587628129982591) (45.557286441635248764,-73.583011466013232393) 109000 6811 1800
Vehicle_72 (45.53445240213495282,-73.642592562012808344) (48.8606217766443649,-67.091691746120275752) 109000 6811 1800
Vehicle_34 (45.553792427546561328,-73.646213563980523986) (48.716943252489414817,-67.428301520553972637) 109000 7034 1800
Vehicle_109 (48.794494567873591961,-67.598238988222703938) (45.494997086138667441,-73.573140096843985702) 109000 7034 1800
Vehicle_47 (45.538947610263733168,-73.573306273120266496) (48.880890065416238599,-67.313038263119835847) 109000 7091 1800
Vehicle_122 (48.878069135870696016,-67.570736076933044956) (45.567295769162697638,-73.625767707136589024) 109000 7091 1800
