1_-_25_kW	L 3	(50.291025,-62.804644)
2_-_25_kW	L 3	(50.291025,-62.804644)
CECA-00057	L 3	(48.388104,-70.587769)
CEC-00104	L 3	(45.56898,-73.538266)
CEC-00349	L 3	(48.23307399999999,-69.801734)
CEL-00480	L 3	(48.23307399999999,-69.801734)
CECA-00029	L 3	(45.6387205,-72.56797770000003)
CEC-00453	L 3	(45.6387205,-72.56797770000003)
CEC-00038	L 3	(46.79125,-71.287345)
CEC-00112	L 3	(48.119306,-69.165778)
CEC-00078	L 3	(45.212512,-74.338789)
CEC-00084	L 3	(45.212512,-74.338789)
CEC-00045	L 3	(45.63602,-72.144073)
CEL-00507	L 3	(45.63602,-72.144073)
CEC-00157	L 3	(46.195441,-73.00448)
CECA-00004	L 3	(48.56211852832431,-71.63726046709995)
CECA-00039	L 3	(48.56211852832431,-71.63726046709995)
CEC-00211	L 3	(48.6329,-71.6997)
CEC-00228	L 3	(48.6329,-71.6997)
CEC-00256	L 3	(46.803316,-71.332133)
CEC-00257	L 3	(46.803316,-71.332133)
CEC-00089	L 3	(45.3655,-72.9336)
CEC-00070	L 3	(45.3655,-72.9336)
CEC-00242	L 3	(45.3655,-72.9336)
CEC-00241	L 3	(45.3655,-72.9336)
CEK-00512	L 3	(45.3655,-72.9336)
CEL-00531	L 3	(45.6113,-73.546)
CEK-00525	L 3	(45.6113,-73.546)
CEL-00543	L 3	(45.1678,-72.0388)
CEK-00529	L 3	(45.1678,-72.0388)
CEK-00538	L 3	(48.7390746,-67.860401)
CEL-00545	L 3	(48.7390746,-67.860401)
CEC-00164	L 3	(49.220696,-68.154457)
CEC-00165	L 3	(49.220696,-68.154457)
CEK-00574	L 3	(47.449772,-70.521015)
CEL-00590	L 3	(47.449772,-70.521015)
50_kW_-_Beaconsfield	L 3	(45.4358854,-73.8482091)
100_kW_-_Beaconsfield	L 3	(45.4358854,-73.8482091)
CEC-00263	L 3	(45.314333,-73.877167)
CEC-00262	L 3	(45.314333,-73.877167)
CEL-00509	L 3	(46.8521933,-71.1950837)
CEK-00494	L 3	(46.8521933,-71.1950837)
CEC-00443	L 3	(47.042825,-70.896151)
CEC-00462	L 3	(47.042825,-70.896151)
CEC-00123	L 3	(46.08595,-73.192928)
CEC-00221	L 3	(46.08595,-73.192928)
CEC-00408	L 3	(46.0889264,-73.199815)
CEC-00409	L 3	(46.0889264,-73.199815)
CEC-00429	L 3	(46.0889264,-73.199815)
CEC-00410	L 3	(46.0889264,-73.199815)
CEC-00430	L 3	(46.0889264,-73.199815)
CEC-00431	L 3	(46.0889264,-73.199815)
CEK-00539	L 3	(48.37734,-68.693487)
CEL-00546	L 3	(48.37734,-68.693487)
50_kW_-_Boisbriand	L 3	(45.61615,-73.8206554)
1_-_100_kW_-_Boisbriand	L 3	(45.61615,-73.8206554)
2_-_100_kW_-_Boisbriand	L 3	(45.61615,-73.8206554)
CEL-00556	L 3	(45.61615,-73.81846139999999)
CEK-00549	L 3	(45.61615,-73.81846139999999)
CEC-00206	L 3	(45.64419,-73.869894)
CEC-00207	L 3	(45.64419,-73.869894)
CEC-00229	L 3	(45.443137,-73.436175)
CEC-00227	L 3	(45.443137,-73.436175)
CEC-00341	L 3	(45.473,-73.4668)
CEC-00400	L 3	(45.473,-73.4668)
CEC-00385	L 3	(46.2919,-72.5402)
CEC-00387	L 3	(46.2919,-72.5402)
CEC-00404	L 3	(46.2919,-72.5402)
CEC-00405	L 3	(46.2919,-72.5402)
CEL-00619	L 3	(46.8374297217684,-71.2692513715874)
CEC-00055	L 3	(48.466764,-67.436565)
CEC-00063	L 3	(48.349331,-64.683954)
CEC-00064	L 3	(48.827302,-64.478272)
CEC-00056	L 3	(49.224843,-65.127267)
CEC-00052	L 3	(48.843378,-67.529801)
CEC-00057	L 3	(48.161172,-65.85714)
CEC-00073	L 3	(48.029571,-65.24814)
CEC-00067	L 3	(48.524071,-64.210534)
CEC-00058	L 3	(48.032752,-66.704046)
CEC-00054	L 3	(49.12436,-66.491212)
CECA-00013	L 3	(45.7054902,-73.92915419999997)
CECA-00047	L 3	(45.7054902,-73.92915419999997)
CECA-00016	L 3	(46.33351039999999,-72.59133639999999)
CECA-00005	L 3	(46.33351039999999,-72.59133639999999)
CECA-00038	L 3	(46.33351039999999,-72.59133639999999)
CECA-00021	L 3	(46.33351039999999,-72.59133639999999)
CEC-00364	L 3	(45.399509,-73.505585)
CEC-00343	L 3	(45.399509,-73.505585)
CEC-00345	L 3	(45.551978,-75.78326)
CEC-00230	L 3	(47.37544,-61.869952)
CEC-00231	L 3	(47.37544,-61.869952)
CEK-00466	L 3	(49.098469,-66.677921)
CEL-00508	L 3	(49.098469,-66.677921)
CEC-00336	L 3	(48.10151,-66.121564)
CEC-00337	L 3	(48.10151,-66.121564)
CEC-00014	L 3	(47.364068,-70.03577)
CEC-00012	L 3	(45.2810748005634,-72.1854338773155)
CEC-00100	L 3	(45.401666,-71.949294)
CEC-00049	L 3	(46.21421,-71.7715)
CEC-00417	L 3	(48.354639,-67.221793)
CEC-00418	L 3	(48.354639,-67.221793)
CEC-00061	L 3	(47.825886,-69.5494)
CEC-00397	L 3	(45.454458,-73.301425)
CEC-00412	L 3	(45.454458,-73.301425)
CECA-00020	L 3	(48.43045,-72.06168)
CEC-00317	L 3	(49.781941,-74.853829)
CEK-00581	L 3	(49.781941,-74.853829)
CEC-00327	L 3	(49.913431,-74.361185)
CEC-00435	L 3	(49.913431,-74.361185)
CEK-00467	L 3	(48.428058,-71.05911)
CECA-00063	L 3	(48.428058,-71.05911)
CEC-00401	L 3	(45.3457,-73.7338)
CEC-00391	L 3	(45.3457,-73.7338)
CECA-00007	L 3	(45.3447,-73.7544)
CECA-00011	L 3	(45.3447,-73.7544)
CEC-00122	L 3	(46.550849,-75.492385)
CEC-00183	L 3	(45.507,-73.5654)
CEC-00182	L 3	(45.507,-73.5654)
CEC-00181	L 3	(45.507,-73.5654)
CEC-00180	L 3	(45.507,-73.5654)
CEC-00203	L 3	(45.849419,-73.247842)
CEC-00202	L 3	(45.849419,-73.247842)
CEC-00423	L 3	(47.140823,-70.769299)
CEL-00479	L 3	(45.2935,-74.1746)
CEK-00468	L 3	(45.2935,-74.1746)
CEC-00281	L 3	(45.7861,-72.0236)
CEC-00280	L 3	(45.7861,-72.0236)
CEC-00060	L 3	(45.19012,-72.751375)
CEC-00432	L 3	(46.6444,-71.9984)
CECA-00064	L 3	(46.6444,-71.9984)
CEC-00252	L 3	(46.681414,-71.729563)
CEC-00253	L 3	(46.681414,-71.729563)
50_kW_-_Dorion	L 3	(45.3799663,-74.0197357)
100_kW_-_Dorion	L 3	(45.3799663,-74.0197357)
50_kW_-_Dorval	L 3	(45.4833531,-73.7900622)
100_kW_-_Dorval	L 3	(45.4833531,-73.7900622)
CEC-00265	L 3	(45.8963028,-72.516904)
CEC-00266	L 3	(45.8963028,-72.516904)
CEK-00470	L 3	(45.8963028,-72.516904)
CEC-00216	L 3	(46.888031,-71.50482)
CEC-00134	L 3	(47.54372,-68.631253)
CEL-00523	L 3	(47.54372,-68.631253)
1_-_50_kW_-_East_Angus	L 3	(45.4847668,-71.6582596)
2_-_50_kW_-_East_Angus	L 3	(45.4847668,-71.6582596)
CEC-00290	L 3	(45.2996,-72.3155)
CEC-00361	L 3	(45.2996,-72.3155)
CEL-00530	L 3	(48.067186,-68.56295)
CECA-00034	L 3	(45.5982886,-73.5530066)
CECA-00010	L 3	(45.5982886,-73.5530066)
CEC-00118	L 3	(45.62993,-73.848822)
CEC-00095	L 3	(48.726463,-69.098923)
CEL-00478	L 3	(45.029,-73.9247)
CEC-00314	L 3	(46.829337,-71.298751)
CEK-00487	L 3	(48.823989,-64.477516)
CEL-00503	L 3	(48.823989,-64.477516)
CEL-00557	L 3	(45.5754503844343,-75.4070315122538)
CEC-00291	L 3	(45.3866,-72.7024)
CEC-00454	L 3	(45.3866,-72.7024)
CEL-00559	L 3	(45.3929,-72.6823)
CEK-00553	L 3	(45.3929,-72.6823)
CEK-00514	L 3	(46.6881497527971,-72.7268301636621)
CEL-00519	L 3	(46.6881497527971,-72.7268301636621)
CEC-00458	L 3	(45.622,-74.5937)
CECA-00019	L 3	(45.622,-74.5937)
CEK-00541	L 3	(49.252664,-65.542361)
CEL-00554	L 3	(49.252664,-65.542361)
CEC-00310	L 3	(47.317656,-70.13896)
CEC-00311	L 3	(47.317656,-70.13896)
CEC-00348	L 3	(45.82843122055252,-74.54796732801847)
CEC-00444	L 3	(50.244491,-63.591343)
CEC-00445	L 3	(50.244491,-63.591343)
CECA-00017	L 3	(48.3848262,-71.68571500000002)
CECA-00037	L 3	(48.4115215,-71.2369696)
CECA-00044	L 3	(48.4115215,-71.2369696)
CEC-00232	L 3	(45.9557,-76.0236)
CEC-00448	L 3	(45.9557,-76.0236)
CEC-00306	L 3	(45.447444,-73.853361)
CEC-00309	L 3	(45.447444,-73.853361)
CEC-00307	L 3	(45.447444,-73.853361)
CEC-00308	L 3	(45.447444,-73.853361)
CEC-00129	L 3	(48.196946,-70.247798)
CEC-00042	L 3	(46.171793,-72.137503)
CEC-00090	L 3	(46.171793,-72.137503)
CEC-00392	L 3	(45.9617,-70.9375)
CEC-00081	L 3	(47.657196,-70.153419)
CEC-00463	L 3	(47.652682,-70.150426)
CEC-00446	L 3	(47.652682,-70.150426)
CEL-00568	L 3	(45.409821,-73.474945)
CEL-00567	L 3	(45.409821,-73.474945)
CEK-00528	L 3	(45.409821,-73.474945)
CEC-00196	L 3	(47.438477,-72.781229)
CEC-00199	L 3	(47.438477,-72.781229)
CECA-00025	L 3	(46.2806,-74.7393)
CECA-00014	L 3	(46.2806,-74.7393)
CEL-00506	L 3	(46.4996,-75.1452)
CEK-00490	L 3	(46.4996,-75.1452)
CEC-00107	L 3	(48.25549,-72.186005)
CEC-00050	L 3	(45.577895,-70.88228)
CEL-00481	L 3	(45.7066290761233,-73.5776324486804)
CEK-00517	L 3	(45.4356,-73.6861)
CEL-00522	L 3	(45.4356,-73.6861)
CEC-00172	L 3	(45.636497,-74.327474)
CEC-00175	L 3	(45.636497,-74.327474)
CEC-00174	L 3	(45.636497,-74.327474)
CEC-00173	L 3	(45.636497,-74.327474)
CEC-00403	L 3	(45.0158,-73.4521)
CEC-00402	L 3	(45.0158,-73.4521)
CEC-00339	L 3	(45.0158,-73.4521)
CEC-00340	L 3	(45.0158,-73.4521)
CEC-00210	L 3	(45.43581,-73.626984)
CEC-00209	L 3	(45.43581,-73.626984)
CEC-00150	L 3	(48.316722,-71.134611)
CEC-00351	L 3	(45.5595,-73.6842)
CECA-00042	L 3	(45.5595,-73.6842)
CEK-00495	L 3	(45.6359,-73.7543)
CEL-00510	L 3	(45.6359,-73.7543)
CEC-00433	L 3	(45.5675,-73.743)
CEC-00434	L 3	(45.5675,-73.743)
CEC-00359	L 3	(45.5675,-73.743)
CEC-00371	L 3	(45.5675,-73.743)
CECA-10001	L 3	(45.58015932279349,-73.73605111892336)
CECA-10002	L 3	(45.58015932279349,-73.73605111892336)
CEC-00086	L 3	(45.47466,-75.69651)
CEC-00066	L 3	(45.47466,-75.69651)
CEC-00065	L 3	(45.47466,-75.69651)
CEC-00085	L 3	(45.47466,-75.69651)
CEC-00036	L 3	(46.125588,-70.684813)
CEC-00350	L 3	(47.478256,-70.324996)
50_kW_-_Longue-Pointe-de-Mingan	L 3	(50.2656822,-64.14627899999999)
100_kW_-_Longue-Pointe-de-Mingan	L 3	(50.2656822,-64.14627899999999)
CEC-00106	L 3	(45.540139,-73.50886)
CEC-00098	L 3	(45.513028,-73.431583)
CEC-00222	L 3	(45.500123,-73.486663)
CEC-00223	L 3	(45.500123,-73.486663)
CEC-00381	L 3	(46.261111,-72.878056)
CEC-00437	L 3	(46.261111,-72.878056)
CEC-00382	L 3	(46.261111,-72.878056)
CEC-00250	L 3	(46.674167,-71.344222)
CEC-00251	L 3	(46.674167,-71.344222)
CEC-00248	L 3	(46.674167,-71.344222)
CEC-00249	L 3	(46.674167,-71.344222)
CEC-00059	L 3	(47.449028,-70.52147)
CEC-00362	L 3	(45.2913711,-72.21335169999999)
CEC-00394	L 3	(45.2913711,-72.21335169999999)
CEC-00395	L 3	(45.2913711,-72.21335169999999)
CECE-00001	L 3	(45.2913711,-72.21335169999999)
CECE-00002	L 3	(45.2913711,-72.21335169999999)
CEC-00284	L 3	(45.266092,-72.155401)
CEC-00285	L 3	(45.266092,-72.155401)
CEC-00079	L 3	(45.427717,-75.71149)
CEC-00287	L 3	(46.376751,-75.982585)
CEC-00286	L 3	(46.376751,-75.982585)
50_kW_-_Mansfield-et-Pontefract	L 3	(45.8481291,-76.7310499)
CEC-00102	L 3	(45.478722,-73.57675)
CEC-00101	L 3	(45.478722,-73.57675)
50_kW_-_Marché_Maisonneuve	L 3	(45.5540855,-73.5392366)
100_kW_-_Marché_Maisonneuve	L 3	(45.5540855,-73.5392366)
CECA-00001	L 3	(45.4373582,-73.16462100000001)
CEC-00450	L 3	(45.4373582,-73.16462100000001)
CEC-00186	L 3	(45.74225,-73.610472)
CEC-00185	L 3	(45.74225,-73.610472)
CEL-00502	L 3	(48.840023,-67.565136)
CEK-00491	L 3	(48.840023,-67.565136)
50_kW_-_Monk	L 3	(45.457379,-73.595803)
100_kW_-_Monk	L 3	(45.457379,-73.595803)
1_-_25_kW_-_Monk	L 3	(45.457379,-73.595803)
2_-_25_kW_-_Monk_	L 3	(45.457379,-73.595803)
CEC-00372	L 3	(48.593343,-68.206478)
CEC-00373	L 3	(48.593343,-68.206478)
CEC-00352	L 3	(48.593343,-68.206478)
CEC-00368	L 3	(48.593343,-68.206478)
CEC-00354	L 3	(46.5511,-75.4807)
CEC-00390	L 3	(46.5511,-75.4807)
CEC-00225	L 3	(46.730933,-76.075556)
CEC-00258	L 3	(46.730933,-76.075556)
CEK-00527	L 3	(46.730933,-76.075556)
CEL-00532	L 3	(46.730933,-76.075556)
CEC-00300	L 3	(46.940315,-70.656073)
CEC-00302	L 3	(46.940315,-70.656073)
CEC-00301	L 3	(46.940315,-70.656073)
CEC-00303	L 3	(46.940315,-70.656073)
CEC-00204	L 3	(45.651667,-73.500278)
CEC-00205	L 3	(45.651667,-73.500278)
CEC-00121	L 3	(48.346628,-69.40512)
CEC-00128	L 3	(48.346628,-69.40512)
CEC-00094	L 3	(49.32188,-67.594748)
CEC-00135	L 3	(46.676197,-73.917558)
CEC-00120	L 3	(47.837674,-69.88172)
CEC-00436	L 3	(47.837674,-69.88172)
CEC-00377	L 3	(48.96063,-65.49222)
CEK-00572	L 3	(45.897519,-74.92076)
CEL-00560	L 3	(45.897519,-74.92076)
CEC-00460	L 3	(45.1878,-73.407)
CEL-00476	L 3	(45.1878,-73.407)
CEC-00267	L 3	(50.1860828,-61.8227046)
CEC-00356	L 3	(46.722775,-71.603566)
CEC-00358	L 3	(46.722775,-71.603566)
CEC-00357	L 3	(46.722775,-71.603566)
CEC-00365	L 3	(46.722775,-71.603566)
CEC-00366	L 3	(46.722775,-71.603566)
CEC-00367	L 3	(46.722775,-71.603566)
CEK-00483	L 3	(48.175485,-65.849394)
CEL-00477	L 3	(48.175485,-65.849394)
CECA-00065	L 3	(48.8410453,-72.5179733)
CECA-00008	L 3	(45.462264,-74.08513)
CECA-00024	L 3	(45.462264,-74.08513)
50_kW_-_Orsainville	L 3	(46.8797428,-71.2862609)
100_kW_-_Orsainville	L 3	(46.8797428,-71.2862609)
6_bornes_25_kW_-_Place_Viau	L 3	(45.5749423,-73.59295399999999)
CEC-00282	L 3	(47.457111,-69.240607)
CEC-00283	L 3	(47.457111,-69.240607)
CEK-00482	L 3	(45.891139,-73.349528)
CEK-00488	L 3	(45.891139,-73.349528)
CEL-00497	L 3	(45.891139,-73.349528)
CEK-00489	L 3	(45.891139,-73.349528)
CEL-00498	L 3	(45.891139,-73.349528)
CEL-00499	L 3	(45.891139,-73.349528)
CEL-00500	L 3	(45.891139,-73.349528)
50_kW_-_Poisson_Blanc	L 3	(49.000657,-73.307097)
CEC-00268	L 3	(50.020777,-66.875471)
CEL-00534	L 3	(45.8543308,-74.0677497)
CEC-00117	L 3	(45.44598,-73.437003)
CEC-00119	L 3	(45.44598,-73.437003)
CEC-00190	L 3	(46.039266,-73.702637)
CEC-00189	L 3	(46.039266,-73.702637)
CEC-00187	L 3	(45.740555,-73.445252)
CEC-00188	L 3	(45.740555,-73.445252)
CEC-00389	L 3	(45.4119,-73.2407)
CEC-00416	L 3	(45.4119,-73.2407)
CEC-00413	L 3	(48.4376059,-68.5358242)
CEC-00369	L 3	(48.4376059,-68.5358242)
CEC-00296	L 3	(49.78066,-67.171432)
CEC-00297	L 3	(49.78066,-67.171432)
50_kW_-_Rivière-Beaudette	L 3	(45.2195411,-74.32216900000002)
100_kW_-_Rivière-Beaudette	L 3	(45.2195411,-74.32216900000002)
50_kW_-_Rivière-Rouge	L 3	(46.4154272,-74.8718341)
CEL-00542	L 3	(46.4013,-74.8665)
CEL-00504	L 3	(48.9947861,-64.3966165)
CEL-00505	L 3	(48.9947861,-64.3966165)
CEC-00353	L 3	(47.8515,-69.5398)
CEC-00370	L 3	(47.8515,-69.5398)
CEC-00096	L 3	(46.343128,-72.545265)
CEC-00459	L 3	(46.343128,-72.545265)
CEC-00270	L 3	(48.241255,-79.027251)
CEC-00271	L 3	(48.241255,-79.027251)
CECA-00071	L 3	(48.374055,-71.09194)
CEK-00526	L 3	(48.374055,-71.09194)
CEC-00292	L 3	(46.462096,-73.141311)
CECA-00061	L 3	(48.55348,-71.321881)
50_kW_-_Sainte-Anne-des-Lacs	L 3	(45.884395,-74.1026961)
CEC-00170	L 3	(46.617886,-71.514123)
CEC-00171	L 3	(46.617886,-71.514123)
CEC-00169	L 3	(46.617886,-71.514123)
CEC-00167	L 3	(46.617886,-71.514123)
50_kW_-_Saint-Bruno	L 3	(45.5400543,-73.3704465)
100_kW_-_Saint-Bruno	L 3	(45.5400543,-73.3704465)
CEC-00375	L 3	(45.5207,-73.3172)
CEC-00399	L 3	(45.5207,-73.3172)
CEC-00192	L 3	(45.684167,-73.18725)
CEL-00496	L 3	(45.3922,-73.5819)
CEK-00465	L 3	(45.3922,-73.5819)
50_kW_-_Saint-Césaire	L 3	(45.4138247,-73.0143595)
100_kW_-_Saint-Césaire	L 3	(45.4138247,-73.0143595)
CEC-00236	L 3	(45.576271,-73.914724)
CEC-00234	L 3	(45.576271,-73.914724)
CEC-00235	L 3	(45.576271,-73.914724)
CEC-00233	L 3	(45.576271,-73.914724)
CEC-00151	L 3	(48.655278,-72.4495)
CEK-00486	L 3	(45.5023,-73.4275)
CECA-00070	L 3	(45.5023,-73.4275)
CEL-00558	L 3	(46.3029187391558,-70.8726442654122)
CEK-00552	L 3	(46.3029187391558,-70.8726442654122)
CECA-00015	L 3	(45.7741,-73.9992)
CECA-00023	L 3	(45.7741,-73.9992)
CEC-00318	L 3	(45.8416,-74.0686)
CEC-00329	L 3	(45.8416,-74.0686)
CEC-00331	L 3	(45.8416,-74.0686)
CEC-00360	L 3	(45.8416,-74.0686)
CEC-00363	L 3	(45.8416,-74.0686)
CECC-00001	L 3	(45.8416,-74.0686)
CECC-00002	L 3	(45.8416,-74.0686)
50_kW_-_Saint-Lambert	L 3	(45.50730470000001,-73.5185676)
100_kW_-_Saint-Lambert	L 3	(45.50730470000001,-73.5185676)
CEC-00133	L 3	(46.218697,-72.054096)
CEC-00132	L 3	(46.218697,-72.054096)
CEC-00131	L 3	(46.218697,-72.054096)
CEC-00130	L 3	(46.218697,-72.054096)
CEC-00245	L 3	(46.0580051,-72.3118906)
CEC-00246	L 3	(46.0580051,-72.3118906)
CEC-00244	L 3	(46.0580051,-72.3118906)
CEC-00247	L 3	(46.0580051,-72.3118906)
CEK-00484	L 3	(46.0580051,-72.3118906)
CEK-00485	L 3	(46.0580051,-72.3118906)
1_-_50_kW_-_Saint-Nicolas	L 3	(46.6981917,-71.3015082)
2_-_50_kW_-_Saint-Nicolas	L 3	(46.6981917,-71.3015082)
CEC-00193	L 3	(45.89201,-73.148464)
CEC-00342	L 3	(47.5303,-69.8195)
CEC-00378	L 3	(47.5303,-69.8195)
CEK-00473	L 3	(45.372,-73.4901)
CECA-00054	L 3	(45.372,-73.4901)
CECA-00046	L 3	(45.260558940105085,-73.61842149203233)
CEC-00461	L 3	(45.8907,-74.1519)
CEL-00475	L 3	(45.8907,-74.1519)
CECA-00003	L 3	(46.7313872,-72.57192620000001)
CEC-00384	L 3	(46.7313872,-72.57192620000001)
CEK-00513	L 3	(46.0651,-74.3027)
CEL-00520	L 3	(46.0651,-74.3027)
50_kW_-_Sainte-Anne-des-Monts	L 3	(49.10056429999999,-66.4559636)
50_kW_-_Sainte-Anne-des-Plaines	L 3	(45.7688358,-73.81710249999999)
100_kW_-_Sainte-Anne-des-Plaines	L 3	(45.7688358,-73.81710249999999)
CECA-00058	L 3	(46.62014419752654,-71.74239672265753)
CEC-00149	L 3	(48.857444,-72.099139)
CEC-00261	L 3	(45.956944,-73.705)
CEC-00260	L 3	(45.956944,-73.705)
CEC-00126	L 3	(46.323417,-73.642056)
50_kW_-_Salaberry-de-Valleyfield	L 3	(45.269113,-74.1365363)
100_kW_-_Salaberry-de-Valleyfield	L 3	(45.269113,-74.1365363)
CEC-00374	L 3	(45.5252,-71.2777)
CEK-00584	L 3	(45.5252,-71.2777)
CEC-00335	L 3	(48.385858,-77.24993)
ZJ5184900014WD	L 3	(47.040782,-76.534342)
CEC-00161	L 3	(50.2438638,-66.3970337)
CEC-00162	L 3	(50.2438638,-66.3970337)
CEC-00178	L 3	(46.5748751,-72.7201403)
CEC-00176	L 3	(46.5748751,-72.7201403)
CEC-00179	L 3	(46.5748751,-72.7201403)
CEC-00177	L 3	(46.5748751,-72.7201403)
CECA-00035	L 3	(45.8320448,-73.88211130000002)
CECA-00031	L 3	(45.8320448,-73.88211130000002)
CEC-00398	L 3	(45.433734,-71.869846)
CEC-00388	L 3	(45.433734,-71.869846)
CEC-00406	L 3	(45.433734,-71.869846)
CEC-00407	L 3	(45.433734,-71.869846)
CEC-00414	L 3	(45.433734,-71.869846)
CEC-00415	L 3	(45.433734,-71.869846)
CEC-00243	L 3	(45.394742,-71.983494)
CEC-00451	L 3	(45.394742,-71.983494)
CEC-00195	L 3	(46.047361,-73.109801)
CEC-00160	L 3	(46.047361,-73.109801)
CEC-00191	L 3	(46.320011,-74.223046)
CEC-00457	L 3	(46.320011,-74.223046)
CEC-00108	L 3	(48.44941,-70.9023)
CEC-00026	L 3	(45.334417,-72.648668)
CEC-00279	L 3	(45.334417,-72.648668)
CEC-00276	L 3	(45.334417,-72.648668)
CEC-00277	L 3	(45.334417,-72.648668)
CEC-00278	L 3	(45.334417,-72.648668)
CEC-00275	L 3	(45.556904,-73.74984)
CEC-00288	L 3	(45.889929,-74.145738)
CECA-00067	L 3	(45.889929,-74.145738)
CECA-00062	L 3	(45.889929,-74.145738)
CEK-00474	L 3	(47.019613,-70.932767)
CECA-00060	L 3	(47.019613,-70.932767)
CEC-00099	L 3	(45.640278,-72.969306)
CEC-00068	L 3	(45.640278,-72.969306)
CEC-00111	L 3	(45.7796401977539,-74.0167465209961)
CEC-00289	L 3	(46.043449,-74.266295)
CEC-00326	L 3	(45.408302,-74.034054)
CEC-00269	L 3	(46.225214,-73.5271493)
50_kW_-_St-Jérôme	L 3	(45.7903434,-74.0529495)
CEC-00442	L 3	(46.9701547,-69.7929967)
CEC-00255	L 3	(46.8466547,-71.6179956)
CEC-00254	L 3	(46.8466547,-71.6179956)
CEC-00321	L 3	(45.577444303076,-73.3280659104926)
CEC-00201	L 3	(46.98263,-71.36682)
CEC-00200	L 3	(46.98263,-71.36682)
CEK-00540	L 3	(46.98263,-71.36682)
1_-_50_kW_-_Laval	L 3	(45.6136884,-73.6833635)
2_-_50_kW_-_Laval	L 3	(45.6136884,-73.6833635)
1_-_100_kW_-_Laval	L 3	(45.6136884,-73.6833635)
2_-_100_kW_-_Laval	L 3	(45.6136884,-73.6833635)
CEL-00544	L 3	(45.1076,-72.615)
CEK-00472	L 3	(45.1076,-72.615)
CEC-00293	L 3	(46.721022,-79.095468)
CEC-00198	L 3	(45.703514,-73.63914)
CEC-00197	L 3	(45.703514,-73.63914)
CEC-00238	L 3	(45.729395,-73.674791)
CEC-00237	L 3	(45.729395,-73.674791)
CEC-00147	L 3	(46.087605,-71.302464)
CEC-00148	L 3	(46.087605,-71.302464)
CEL-00501	L 3	(48.10602269116632,-69.20812500806178)
CEK-00493	L 3	(48.10602269116632,-69.20812500806178)
CEC-00259	L 3	(46.8994042669164,-72.9282161018524)
CEC-00464	L 3	(46.8994042669164,-72.9282161018524)
CEL-00492	L 3	(46.369444,-72.55555)
CEK-00481	L 3	(46.369444,-72.55555)
CEC-00155	L 3	(46.370428,-72.554789)
CEC-00076	L 3	(45.378317,-71.928373)
CEC-00194	L 3	(48.07221,-77.382662)
CEC-00315	L 3	(48.07221,-77.382662)
CEC-00152	L 3	(45.770218,-71.927167)
CEC-00452	L 3	(45.770218,-71.927167)
CEK-00573	L 3	(48.09717740000001,-77.8232182)
CEL-00561	L 3	(48.09717740000001,-77.8232182)
CEC-00272	L 3	(45.493155,-72.3137)
CEC-00239	L 3	(45.2647,-74.1349)
CEC-00240	L 3	(45.2647,-74.1349)
50_kW_-_Venise-en-Québec	L 3	(45.0832781,-73.14975989999999)
100_kW_-_Venise-en-Québec	L 3	(45.0832781,-73.14975989999999)
1_-_25_kW_-_Victoria	L 3	(45.4357804,-73.6861986)
2_-_25_kW_-_Victoria	L 3	(45.4357804,-73.6861986)
CEC-00264	L 3	(46.0584,-71.9706)
CEC-00449	L 3	(46.0584,-71.9706)
CEC-00396	L 3	(46.0582,-71.955)
CEC-00156	L 3	(46.261558,-72.87568)
CEC-00069	L 3	(48.571485,-78.110018)
CEC-00062	L 3	(45.544704,-73.211785)
CEC-00048	L 3	(45.133125,-71.803409)
CEL-00599	L 3	(45.133125,-71.803409)
CEC-00071	L 3	(45.287769,-72.99399)
CEC-00083	L 3	(46.025185,-73.438447)
CEC-00074	L 3	(46.025185,-73.438447)
CEC-00145	L 3	(45.547725,-73.865022)
CEC-00142	L 3	(45.547725,-73.865022)
CEC-00136	L 3	(45.601742,-73.653815)
CEC-00144	L 3	(45.601742,-73.653815)
CEC-00166	L 3	(45.59078,-73.787804)
CEC-00184	L 3	(45.59078,-73.787804)
CEC-00146	L 3	(45.562809,-73.783049)
CEC-00143	L 3	(45.562809,-73.783049)
CEC-00422	L 3	(48.585358,-68.188612)
CEC-00053	L 3	(46.11851,-74.600437)
CEC-00105	L 3	(46.174908,-74.60324)
CEC-00325	L 3	(45.649953,-74.94287)
CEC-00125	L 3	(46.225743,-72.617323)
CEC-00158	L 3	(46.225743,-72.617323)
CEC-00077	L 3	(46.821589,-71.237032)
CEC-00088	L 3	(49.071873,-68.477274)
CEC-00044	L 3	(48.45068758,-68.52971682)
CEC-00109	L 3	(48.503849,-72.227465)
CEC-00039	L 3	(48.380845,-71.083094)
CEC-00159	L 3	(45.639081,-72.966535)
CEC-00380	L 3	(45.639081,-72.966535)
CEC-00323	L 3	(45.324694,-73.248365)
CEC-00110	L 3	(45.023259,-72.086202)
CEK-00585	L 3	(45.023259,-72.086202)
CEC-00420	L 3	(48.10188,-77.789386)
CEC-00163	L 3	(46.057979,-71.95601)
CEC-00424	L 3	(45.608671,-75.395488)
CEK-00578	L 3	(45.608671,-75.395488)
CEC-00294	L 3	(47.331746,-79.438156)
CEC-00305	L 3	(47.331746,-79.438156)
CEC-00320	L 3	(46.3891,-71.8436)
CEC-00379	L 3	(46.3891,-71.8436)
CEC-00316	L 3	(45.7592,-71.406)
CEC-00440	L 3	(45.5707,-72.0024)
CEC-00439	L 3	(45.5707,-72.0024)
CEC-00438	L 3	(46.2618646,-72.8765218)
CEK-00537	L 3	(46.2618646,-72.8765218)
CEC-00124	L 3	(47.560204,-71.23043)
CEC-00041	L 3	(47.560204,-71.23043)
CEC-00427	L 3	(47.560204,-71.23043)
CEC-00376	L 3	(47.560204,-71.23043)
CEC-00393	L 3	(47.560204,-71.23043)
CEC-00428	L 3	(47.560204,-71.23043)
CEC-00273	L 3	(45.370088,-71.990952)
CEC-00274	L 3	(45.370088,-71.990952)
CEC-00127	L 3	(45.711389,-71.155972)
CEC-00075	L 3	(46.538382,-71.636986)
CEC-00051	L 3	(49.228842,-65.735214)
CEC-00087	L 3	(45.569462,-73.442913)
CEC-00093	L 3	(48.806616,-79.204349)
CEC-00103	L 3	(46.97988,-70.568088)
CEC-00040	L 3	(45.308564,-73.252001)
CECA-00012	L 3	(46.7988683,-70.75843979999999)
CECA-00002	L 3	(45.3964027,-75.8366533)
CECA-00026	L 3	(45.3964027,-75.8366533)
CECA-00072	L 3	(46.395723,-72.290999)
CECA-00059	L 3	(46.395723,-72.290999)
CEC-00333	L 3	(48.878797,-72.229516)
CEC-00332	L 3	(48.878797,-72.229516)
CEC-00347	L 3	(48.181655,-70.845879)
CEC-00346	L 3	(48.181655,-70.845879)
CEC-00319	L 3	(48.330668,-70.880991)
CECA-00048	L 3	(48.71386200000001,-72.64932809999999)
CECA-00053	L 3	(45.198435,-72.66359)
CECA-00055	L 3	(45.198435,-72.66359)
CEC-00328	L 3	(49.052547,-76.976977)
CECA-00027	L 3	(46.779185,-71.154749)
CECA-00028	L 3	(46.779185,-71.154749)
CECA-00050	L 3	(45.561766,-73.19092)
CECA-00066	L 3	(45.561766,-73.19092)
CECA-00032	L 3	(45.497335,-73.623646)
CECA-00045	L 3	(45.520923,-76.22937)
CEC-00447	L 3	(45.520923,-76.22937)
CEC-00334	L 3	(50.276069,-64.775066)
CEC-00441	L 3	(50.276069,-64.775066)
CEC-00383	L 3	(46.5937265,-71.2062734)
CECA-00006	L 3	(46.5937265,-71.2062734)
CECA-00049	L 3	(46.5715286,-72.20526260000001)
CECA-00022	L 3	(46.5715286,-72.20526260000001)
CECA-00051	L 3	(45.3889727,-73.5572954)
CECA-00056	L 3	(45.3889727,-73.5572954)
CEC-00312	L 3	(45.5122,-73.6784)
CEC-00313	L 3	(45.5122,-73.6784)
CECA-00018	L 3	(48.1434818,-69.718992)
CECA-00009	L 3	(48.1434818,-69.718992)
CEC-00355	L 3	(46.1321,-74.6134)
CEC-00386	L 3	(46.1321,-74.6134)
CECA-00041	L 3	(46.003984,-72.914857)
CECA-00036	L 3	(45.0867564,-74.1744162)
CEC-00153	L 3	(45.524942,-73.580838)
CEC-90009	L 3	(45.306924,-75.083287)
CEC-90012	L 3	(45.610082,-74.603541)
CEC-90005	L 3	(45.344254,-75.760625)
CEC-90003	L 3	(45.41143,-75.70647)
CEC-90011	L 3	(45.3001144,-75.7328226)
CEC-90004	L 3	(45.308005,-75.909408)
CEC-90002	L 3	(45.308005,-75.909408)
CEC-90010	L 3	(44.721559,-75.52285)
CEC-90017	L 3	(45.022218,-74.746758)
CEC-90007	L 3	(45.543549,-75.304486)
CECA-00033	L 3	(46.555603,-72.11724)
CECA-00030	L 3	(46.555603,-72.11724)
CEC-00022	L 3	(45.395589,-72.712862)
CEC-00421	L 3	(46.731446,-71.26335)
CEC-00047	L 3	(45.476593,-74.28443)
CEC-00082	L 3	(45.476593,-74.28443)
CEC-00154	L 3	(46.639683,-71.99645)
1_-_50_KW_-_Notre-Dame-de-la-Merci	L 3	(46.225318,-74.06064)
2-_50_kW_-_Notre-Dame-de-la-Merci	L 3	(46.225318,-74.06064)
CEC-90001	L 3	(45.429826,-75.691315)
CEC-00072	L 3	(46.831753,-71.30031)
CEC-90006	L 3	(45.023078,-75.619535)
CEC-00419	L 3	(45.6006622314453,-73.447509765625)
CEC-00092	L 3	(45.898911,-72.5257)
CEC-00324	L 3	(45.898911,-72.5257)
CECA-00052	L 3	(46.7786293029785,-71.3508605957031)
CEK-00524	L 3	(46.7786293029785,-71.3508605957031)
CEC-00426	L 3	(46.46915,-71.037935)
CECA-00040	L 3	(46.034900204648,-73.0912787196633)
CECA-00043	L 3	(46.034900204648,-73.0912787196633)
CEC-00116	L 3	(45.596471,-73.196489)
CEC-00115	L 3	(45.596471,-73.196489)
CEC-00114	L 3	(45.596471,-73.196489)
CEC-00113	L 3	(45.596471,-73.196489)
CEC-00080	L 3	(47.6806026,-68.87636160000001)
