Vehicle_9 (45.511086933559731449,-73.63648231941914446) (48.903461683289734196,-67.195722098393332544) 109000 142 1800
Vehicle_84 (48.800657162582368187,-67.338866591651949989) (45.485436736124682966,-73.594051844564276621) 109000 142 1800
Vehicle_5 (45.532110884836207276,-73.602625609638835158) (48.853671811875770459,-67.132320168956454154) 109000 253 1800
Vehicle_80 (48.849424757291913579,-67.54215334290452688) (45.487357423293460101,-73.589017308557430397) 109000 253 1800
Vehicle_11 (45.534954482410817889,-73.5974957411373083) (48.558722988027014367,-67.368680681533490429) 109000 282 1800
Vehicle_86 (48.690467841586063003,-67.211201918065270888) (45.492395812535342259,-73.623700374163988158) 109000 282 1800
Vehicle_124 (48.929247316164598658,-67.20189530397578892) (45.562975069860151223,-73.612772326519007038) 109000 284 1800
Vehicle_49 (45.537113065620644647,-73.595253728413311478) (48.787495012204416867,-67.3258083009207553) 109000 284 1800
Vehicle_13 (45.539868178178672053,-73.624339778683136615) (48.860023784109699818,-67.024744223291520484) 109000 384 1800
Vehicle_88 (48.922343468914355924,-67.297978843237615365) (45.51389201457702427,-73.569863544325798443) 109000 384 1800
Vehicle_1 (45.530614729338509505,-73.641003241495226916) (48.688793547151703933,-67.518821705160263491) 109000 464 1800
Vehicle_76 (48.791871728492878901,-67.320443938450523547) (45.512327787663167555,-73.616529550706530927) 109000 464 1800
Vehicle_123 (48.587693282032176967,-67.469035659541262362) (45.493691206927003634,-73.609684307978710649) 109000 476 1800
Vehicle_48 (45.511412089982215434,-73.626237860951974312) (48.907643427069380948,-67.5999052576657391) 109000 476 1800
Vehicle_24 (45.560245000698230911,-73.608536797016867581) (48.773569231365677012,-67.538531295433770651) 109000 499 1800
Vehicle_99 (48.688279079867697874,-67.39661833353898146) (45.480644446358070354,-73.585740938060837379) 109000 499 1800
Vehicle_125 (48.534431949508075377,-67.604668530584930863) (45.559875922126884973,-73.581389099552794164) 109000 552 1800
Vehicle_50 (45.529930692543707949,-73.650682183416009252) (48.670093690552022281,-67.603148108899219437) 109000 552 1800
Vehicle_37 (45.5090067762260162,-73.624401687611552347) (48.534922296825826038,-67.372468325881939677) 109000 744 1800
Vehicle_112 (48.853175423306652192,-67.104892496441522098) (45.476378473214985831,-73.581131743984300897) 109000 744 1800
Vehicle_68 (45.522027702894106937,-73.648582924793856819) (48.830103233677590424,-67.145444619249929019) 109000 789 1800
Vehicle_143 (48.765873756651522797,-67.352305321599445165) (45.516573865649007757,-73.615673511923148453) 109000 789 1800
Vehicle_120 (48.514747419764567837,-67.41079898782912494) (45.540901561351304849,-73.614361534744787718) 109000 820 1800
Vehicle_45 (45.496546408276188345,-73.579535878748899336) (48.923524531510686586,-67.111703567991611408) 109000 820 1800
Vehicle_20 (45.493161041498801467,-73.653536581803166428) (48.713525261878210415,-67.396898252715459421) 109000 900 1800
Vehicle_95 (48.647907434318739206,-67.094717192438395159) (45.536272207579621352,-73.568837485363999917) 109000 900 1800
Vehicle_17 (45.502983297240490401,-73.578613247577919765) (48.669130293594804471,-67.258133991519756023) 109000 1001 1800
Vehicle_92 (48.71504101943111209,-67.474692827037785037) (45.540911693102962943,-73.639323484243718099) 109000 1001 1800
Vehicle_91 (48.854612276372954227,-67.61380712775644497) (45.540627025620963764,-73.56660047674503744) 109000 1007 1800
Vehicle_16 (45.527130996908262262,-73.600553576452597326) (48.900945396250236286,-67.419326165149229269) 109000 1007 1800
Vehicle_108 (48.733804413763195384,-67.391015510287118673) (45.536418027336154069,-73.617197330856427584) 109000 1059 1800
Vehicle_33 (45.522680942052765829,-73.640475936769263399) (48.80862643593043515,-67.376332532153043076) 109000 1059 1800
Vehicle_132 (48.69201506074293917,-67.311646159156509839) (45.482531875955729106,-73.596625779994099048) 109000 1297 1800
Vehicle_57 (45.516025202599877275,-73.648481502788115449) (48.666482543156178053,-67.552374306046118591) 109000 1297 1800
Vehicle_75 (45.548739977022194125,-73.64307276472905528) (48.606328197635768618,-67.330556270360730764) 109000 1301 1800
Vehicle_150 (48.834707306555067419,-67.463483285941535428) (45.566582251396020808,-73.647717288838393301) 109000 1301 1800
Vehicle_12 (45.527398901821698018,-73.602334229165862212) (48.857726267479968385,-67.158354936318289674) 109000 1333 1800
Vehicle_87 (48.937957166096452966,-67.142636600331755403) (45.496324457361062343,-73.607288717188012583) 109000 1333 1800
Vehicle_94 (48.800341308206220958,-67.530509262229273304) (45.536490112131275509,-73.623474685044641319) 109000 1360 1800
Vehicle_19 (45.503237039798626995,-73.616569497316774573) (48.853178893461510768,-67.183370747157226788) 109000 1360 1800
Vehicle_118 (48.613280513506367697,-67.382656929349636243) (45.560206878300185451,-73.594325219097243007) 109000 1405 1800
Vehicle_43 (45.559856227047411892,-73.607797943720711942) (48.749876835395191677,-67.329891623324158445) 109000 1405 1800
Vehicle_102 (48.590468449383564575,-67.468680896168521599) (45.536237837791475158,-73.599635521984055231) 109000 1557 1800
Vehicle_27 (45.555328847516669555,-73.571699412412016272) (48.877443962225477492,-67.551863979778346447) 109000 1557 1800
Vehicle_25 (45.494869646708110622,-73.631419332708432535) (48.891935011571973746,-67.385908278013658901) 109000 1590 1800
Vehicle_100 (48.909543841643106532,-67.072633045612846558) (45.551585612072884146,-73.5967716325392729) 109000 1590 1800
Vehicle_116 (48.740290664165151213,-67.159526432421969844) (45.528864568844589655,-73.640031352553734223) 109000 1592 1800
Vehicle_41 (45.498293344712998021,-73.60811381656854735) (48.606031504946777488,-67.444839823236122811) 109000 1592 1800
Vehicle_3 (45.534541868838893208,-73.650592269714124427) (48.722502177836432224,-67.476327971259948413) 109000 1657 1800
Vehicle_78 (48.679219378475977464,-67.125197838501435399) (45.503444600105652285,-73.607623779799865815) 109000 1657 1800
Vehicle_55 (45.510300662052181053,-73.653091118318400277) (48.748881005939651345,-67.153741635558702683) 109000 1694 1800
Vehicle_130 (48.856739960721810689,-67.346398616375225288) (45.526841814489266369,-73.608553901806203612) 109000 1694 1800
Vehicle_142 (48.539720859752165438,-67.567359189454663237) (45.557530964155006359,-73.617754264942959708) 109000 1894 1800
Vehicle_67 (45.511147222638690835,-73.611295892115961692) (48.887411341409737986,-67.175441928700635685) 109000 1894 1800
Vehicle_77 (48.937839962168325769,-66.993416800131811328) (45.553099684279324322,-73.64575224257635) 109000 2000 1800
Vehicle_2 (45.48500864167286295,-73.620108429223165558) (48.583934809603391614,-67.524555060693131736) 109000 2000 1800
Vehicle_69 (45.543261785318627233,-73.584093789903803895) (48.626951334482100719,-67.255253094935170566) 109000 2154 1800
Vehicle_144 (48.877963178658042409,-67.340111060932827058) (45.548375149284083818,-73.580711228336184604) 109000 2154 1800
Vehicle_62 (45.534424759190500254,-73.654158838236483575) (48.87889608269745878,-67.274990291000207776) 109000 2321 1800
Vehicle_137 (48.648315738881777293,-67.360689857063775321) (45.490282412118865807,-73.625325113656572285) 109000 2321 1800
Vehicle_4 (45.479101392948876992,-73.653591304827401132) (48.90628511873702422,-67.610666638235983328) 109000 2534 1800
Vehicle_79 (48.859165987144976384,-67.378612246929975527) (45.566861121463063,-73.610259968511996931) 109000 2534 1800
Vehicle_61 (45.486984843883959684,-73.629724201803199435) (48.502187184152653288,-67.3317804328185332) 109000 2557 1800
Vehicle_136 (48.931240408452232771,-67.085073416502368104) (45.544264934870568595,-73.616553556378306666) 109000 2557 1800
Vehicle_81 (48.657523581270595514,-67.414827846233876585) (45.526574516016943051,-73.618434294389700767) 109000 2611 1800
Vehicle_6 (45.559245289488536912,-73.584060354427606399) (48.974051100599851338,-67.04787885873251696) 109000 2611 1800
Vehicle_29 (45.528557289691846677,-73.587228461529264223) (48.880985300406408101,-67.335870431859760288) 109000 2631 1800
Vehicle_104 (48.572137106237079252,-67.345361109244564091) (45.564426161931820047,-73.580767478159160078) 109000 2631 1800
Vehicle_149 (48.94600438771308859,-66.983159417267160052) (45.517411667408609333,-73.649349139620923665) 109000 2760 1800
Vehicle_74 (45.540457868898890581,-73.58926592716662185) (48.915727163354745244,-67.343783018199289359) 109000 2760 1800
Vehicle_134 (48.630949222944821031,-67.626414638686469516) (45.535871770351278087,-73.610920146451150003) 109000 2836 1800
Vehicle_59 (45.485382662396617093,-73.606465436267072278) (48.935908375050424013,-67.028648583814145923) 109000 2836 1800
Vehicle_28 (45.507408484185063458,-73.612588353398734853) (48.806894679979237139,-67.627866054899357096) 109000 2847 1800
Vehicle_103 (48.914082165304492378,-67.560668245387773823) (45.496533506430928639,-73.61718164383421481) 109000 2847 1800
Vehicle_97 (48.87408237440434533,-67.21465691217824201) (45.519573577688383637,-73.604874630819637105) 109000 2871 1800
Vehicle_22 (45.542679813268350131,-73.610616766848494308) (48.571434630954087197,-67.235589042743569621) 109000 2871 1800
Vehicle_44 (45.541256946347857593,-73.565470090658934055) (48.796232859825586559,-67.228951028114067867) 109000 2879 1800
Vehicle_119 (48.672935833135703376,-67.152157863500448798) (45.559005544211295557,-73.592087343882525374) 109000 2879 1800
Vehicle_30 (45.522771982546224478,-73.619266996864610064) (48.620984067963121333,-67.531731288544875724) 109000 3046 1800
Vehicle_105 (48.801512562821578456,-67.12323877552768181) (45.549983052169665143,-73.61602503344015247) 109000 3046 1800
Vehicle_140 (48.618092495217723581,-67.539403326235245117) (45.488755872890884291,-73.633129475076671611) 109000 3210 1800
Vehicle_65 (45.55040897868403249,-73.623071376089171736) (48.909903147042605553,-67.031266686585468051) 109000 3210 1800
Vehicle_63 (45.53703822952244451,-73.632730333024937863) (48.916160645741136648,-67.184794758449882579) 109000 3417 1800
Vehicle_138 (48.9375828966323283,-67.191375951270188693) (45.495411806680358779,-73.610286383799646615) 109000 3417 1800
Vehicle_35 (45.527574457887595827,-73.612866361078985733) (48.727599593378094767,-67.57167532409059163) 109000 3442 1800
Vehicle_110 (48.969127926495879422,-67.101628725950646981) (45.551916221478059299,-73.567307530767891421) 109000 3442 1800
Vehicle_145 (48.815223957450697867,-67.335271960883957831) (45.529044386537037781,-73.571387981775075104) 109000 3640 1800
Vehicle_70 (45.508997862820180558,-73.596192143737937386) (48.864189556869412456,-67.091268503509056131) 109000 3640 1800
Vehicle_139 (48.663767905000526071,-67.614954831879799713) (45.488171758786286603,-73.562787344854868365) 109000 3701 1800
Vehicle_64 (45.558820579887395752,-73.652642449422884852) (48.805677430746641221,-67.624510030264161742) 109000 3701 1800
Vehicle_126 (48.786463021526763839,-67.275527623263513988) (45.489425336436482894,-73.608425852877687134) 109000 3741 1800
Vehicle_51 (45.484008815623063526,-73.566242204437514829) (48.575553678935598612,-67.296584078764865922) 109000 3741 1800
Vehicle_114 (48.713108017179294507,-67.170418752510343552) (45.476012831310548279,-73.62464530381750194) 109000 3879 1800
Vehicle_39 (45.560074608043315436,-73.642438799180254705) (48.585639009119852005,-67.368646422096347237) 109000 3879 1800
Vehicle_31 (45.528777971585469686,-73.637669840747918215) (48.891310486300397997,-67.578930783033399621) 109000 3982 1800
Vehicle_106 (48.557202636603832957,-67.257009929686560668) (45.543614008828456008,-73.63128672321421675) 109000 3982 1800
Vehicle_14 (45.538155147468536654,-73.616087098934798405) (48.818823901815143529,-67.2019619353364277) 109000 4371 1800
Vehicle_89 (48.527377253455114214,-67.260750030875954053) (45.520952609264135447,-73.651890362770615184) 109000 4371 1800
Vehicle_36 (45.482826990796510813,-73.612088530984394197) (48.929400796245872129,-67.600054077661638985) 109000 4622 1800
Vehicle_111 (48.962698718097804829,-66.983431201314147074) (45.485512244059819409,-73.611494502564283948) 109000 4622 1800
Vehicle_7 (45.50581170027155764,-73.56209094707554641) (48.650609017369625064,-67.13841018820208717) 109000 4745 1800
Vehicle_82 (48.559154564191757686,-67.518675558046254537) (45.523140588488551828,-73.630397843295540383) 109000 4745 1800
Vehicle_66 (45.542155554478178203,-73.65434063238065221) (48.75621574675729164,-67.295345697726972389) 109000 4890 1800
Vehicle_141 (48.794080078937192013,-67.273258889797446614) (45.526175585874398166,-73.571480663986235982) 109000 4890 1800
Vehicle_56 (45.512496297267112766,-73.594124739353446785) (48.936465975218347069,-67.598141040916303268) 109000 4922 1800
Vehicle_131 (48.960091423398885979,-66.976955721286159928) (45.529119801556340974,-73.627257986060186568) 109000 4922 1800
Vehicle_115 (48.699144868940734909,-67.154714710204061134) (45.508250667230917941,-73.606037921918286315) 109000 5257 1800
Vehicle_40 (45.551272504390055929,-73.619547730070863167) (48.668421170179421154,-67.365161906596370045) 109000 5257 1800
Vehicle_10 (45.531874284558661259,-73.653444915604467269) (48.82422296406340223,-67.209284108246336586) 109000 5479 1800
Vehicle_85 (48.745628933666417026,-67.161754255337783093) (45.547566374349720775,-73.614274084609050419) 109000 5479 1800
Vehicle_8 (45.515091140497723643,-73.61106005161589394) (48.743590616314911301,-67.126238411098952952) 109000 5524 1800
Vehicle_83 (48.80771588059133137,-67.386243218046146808) (45.557414127499910705,-73.625475127411760923) 109000 5524 1800
Vehicle_117 (48.585742125420900095,-67.579876867511543992) (45.526520384371657713,-73.643489374665776381) 109000 5531 1800
Vehicle_42 (45.529261766690041213,-73.572624236035494505) (48.88292157451058273,-67.380745231497243708) 109000 5531 1800
Vehicle_54 (45.48391144606631542,-73.59611063468982195) (48.707400637425742218,-67.347731318328314387) 109000 5542 1800
Vehicle_129 (48.791925457703761992,-67.253043508734705824) (45.517472141008447295,-73.651363850931105048) 109000 5542 1800
Vehicle_101 (48.895783544795747844,-67.049697504813039473) (45.526727138765089364,-73.604680406313860885) 109000 5543 1800
Vehicle_26 (45.543787035916430739,-73.625414468950879154) (48.838259530627780691,-67.173710694941320298) 109000 5543 1800
Vehicle_18 (45.489997777623592867,-73.622970796794731996) (48.914366517154000746,-67.252368112765154251) 109000 5586 1800
Vehicle_93 (48.835191071438714516,-67.073474543426854666) (45.543474287206748841,-73.62805785936497216) 109000 5586 1800
Vehicle_71 (45.540893336727442886,-73.591519237011169707) (48.510739254269545029,-67.590062860121363997) 109000 5701 1800
Vehicle_146 (48.675927126564928926,-67.49829789401340463) (45.498564493096132821,-73.607045935192743968) 109000 5701 1800
Vehicle_23 (45.549014488940436252,-73.571172358740568598) (48.884014387357581199,-67.419629763539091982) 109000 5737 1800
Vehicle_98 (48.913536672541233941,-67.341681657912232595) (45.489892981406825356,-73.648771978969335805) 109000 5737 1800
Vehicle_133 (48.770716931367189773,-67.428293984277360096) (45.538076501918084205,-73.598152566105113692) 109000 5822 1800
Vehicle_58 (45.514394100372619789,-73.598238809022603846) (48.839962636467639356,-67.031035845930290407) 109000 5822 1800
Vehicle_107 (48.66579304369821557,-67.222109221304378934) (45.553620304250827644,-73.606198740558696159) 109000 5843 1800
Vehicle_32 (45.479098267616940632,-73.575338329618105604) (48.768335399749602743,-67.055319677336342465) 109000 5843 1800
Vehicle_60 (45.530138042396195885,-73.616799003446203642) (48.886940791460311573,-67.255097568648736228) 109000 5931 1800
Vehicle_135 (48.897657409130324879,-67.332209025430429961) (45.532033043447810883,-73.59558506374305864) 109000 5931 1800
Vehicle_121 (48.886328667659441294,-67.383982435459287785) (45.497834540218086374,-73.620324467100118682) 109000 6162 1800
Vehicle_46 (45.515486292009541103,-73.632673039004970406) (48.698697077046077197,-67.571123925422256207) 109000 6162 1800
Vehicle_73 (45.513305885598043687,-73.577642195107529233) (48.90057902822214686,-67.087411842579086851) 109000 6280 1800
Vehicle_148 (48.858744604399824141,-67.541873221059944399) (45.539954364300406553,-73.622007423971282947) 109000 6280 1800
Vehicle_53 (45.53201251315319098,-73.653050408038552632) (48.884782561512501786,-67.215807316794368376) 109000 6559 1800
Vehicle_128 (48.711117110047545964,-67.390100991846139777) (45.499951271633449323,-73.648870379542302089) 109000 6559 1800
Vehicle_21 (45.527088380156868652,-73.637192715390185072) (48.707107720384762217,-67.308635777212259654) 109000 6576 1800
Vehicle_96 (48.691617556114245247,-67.331517318300299735) (45.566209977689801747,-73.624939187521846407) 109000 6576 1800
Vehicle_113 (48.76857817922275018,-67.591991976011897236) (45.511140768020638347,-73.606380910494465297) 109000 6665 1800
Vehicle_38 (45.507881354318939771,-73.607186378729323906) (48.9588392325173416,-67.29745760731245241) 109000 6665 1800
Vehicle_52 (45.554501479806823738,-73.594021602847902841) (48.790728861741222033,-67.361487630922866288) 109000 6718 1800
Vehicle_127 (48.549085070074198711,-67.587430346806627313) (45.559279024372330014,-73.571258853101824116) 109000 6718 1800
Vehicle_90 (48.665067224890456998,-67.171925951379535036) (45.525583327851890658,-73.65571127181766542) 109000 6761 1800
Vehicle_15 (45.515921919707693633,-73.635623405632600225) (48.945673030436509521,-67.186314026142483158) 109000 6761 1800
Vehicle_147 (48.689440557027516832,-67.45820756368114246) (45.505119780803418905,-73.605695097883071298) 109000 6811 1800
Vehicle_72 (45.485274754622679438,-73.588496768556908023) (48.921805712524701448,-67.244293420794221561) 109000 6811 1800
Vehicle_34 (45.511569578875089803,-73.582147113168645092) (48.531446345565079525,-67.390281439306960465) 109000 7034 1800
Vehicle_109 (48.779329004102933709,-67.517704085613388543) (45.525730528295717647,-73.651424470004471345) 109000 7034 1800
Vehicle_47 (45.503059095366289455,-73.574703008808938876) (48.674155165788448585,-67.610141523034783972) 109000 7091 1800
Vehicle_122 (48.626750634329354739,-67.5168951120296299) (45.526953226543533049,-73.59254493733270408) 109000 7091 1800
